SPI.vcd
$date
	Tue Oct 31 19:25:04 2017
$end
$version
	Icarus Verilog
$end
$timescale
	1ps
$end
$scope module spitest $end
$var wire 4 ! leds [3:0] $end
$var wire 1 " miso_pin $end
$var reg 1 # clk $end
$var reg 1 $ cs_pin $end
$var reg 1 % mosi_pin $end
$var reg 1 & sclk_pin $end
$scope module spitime $end
$var wire 1 ' ADDR_WE $end
$var wire 1 ( ChipSel $end
$var wire 1 ) DM_WE $end
$var wire 1 * MISO $end
$var wire 1 + MISO_BUFE $end
$var wire 1 , MISO_PreBuff $end
$var wire 1 - MOSI $end
$var wire 1 . SCLKEdge $end
$var wire 1 / SR_WE $end
$var wire 7 0 address [6:0] $end
$var wire 1 1 clk $end
$var wire 1 2 conditioned1 $end
$var wire 1 3 cs_pin $end
$var wire 8 4 dataMemOut [7:0] $end
$var wire 4 5 leds [3:0] $end
$var wire 1 " miso_pin $end
$var wire 1 6 mosi_pin $end
$var wire 1 7 negativeedge0 $end
$var wire 1 8 negativeedge1 $end
$var wire 1 9 negativeedge2 $end
$var wire 1 : positiveedge0 $end
$var wire 1 ; positiveedge2 $end
$var wire 1 < sclk_pin $end
$var wire 8 = shiftRegOutP [7:0] $end
$scope module serialInCond $end
$var wire 1 1 clk $end
$var wire 1 6 noisysignal $end
$var reg 1 > conditioned $end
$var reg 3 ? counter [2:0] $end
$var reg 1 @ negativeedge $end
$var reg 1 A positiveedge $end
$var reg 1 B synchronizer0 $end
$var reg 1 C synchronizer1 $end
$upscope $end
$scope module SCLKCond $end
$var wire 1 1 clk $end
$var wire 1 < noisysignal $end
$var reg 1 D conditioned $end
$var reg 3 E counter [2:0] $end
$var reg 1 F negativeedge $end
$var reg 1 G positiveedge $end
$var reg 1 H synchronizer0 $end
$var reg 1 I synchronizer1 $end
$upscope $end
$scope module ChipSelCond $end
$var wire 1 1 clk $end
$var wire 1 3 noisysignal $end
$var reg 1 J conditioned $end
$var reg 3 K counter [2:0] $end
$var reg 1 L negativeedge $end
$var reg 1 M positiveedge $end
$var reg 1 N synchronizer0 $end
$var reg 1 O synchronizer1 $end
$upscope $end
$scope module SPIShift $end
$var wire 1 1 clk $end
$var wire 8 P parallelDataIn [7:0] $end
$var wire 8 Q parallelDataOut [7:0] $end
$var wire 1 / parallelLoad $end
$var wire 1 . peripheralClkEdge $end
$var wire 1 - serialDataIn $end
$var wire 1 * serialDataOut $end
$var reg 8 R shiftregistermem [7:0] $end
$upscope $end
$scope module DFFAddr $end
$var wire 7 S d [6:0] $end
$var wire 1 ' enable $end
$var wire 1 1 trigger $end
$var reg 7 T q [6:0] $end
$upscope $end
$scope module SPIFSM $end
$var wire 1 ( ChipSelCond $end
$var wire 1 . SCLKEdge $end
$var wire 1 1 clk $end
$var wire 1 U shiftRegOutPZero $end
$var reg 1 V ADDR_WE $end
$var reg 1 W DM_WE $end
$var reg 1 X MISO_BUFE $end
$var reg 1 Y SR_WE $end
$var reg 1 Z WriteController $end
$var reg 5 [ counter [4:0] $end
$upscope $end
$scope module DFFMISO $end
$var wire 1 * d $end
$var wire 1 8 enable $end
$var wire 1 1 trigger $end
$var reg 1 \ q $end
$upscope $end
$scope module data $end
$var wire 7 ] address [6:0] $end
$var wire 1 1 clk $end
$var wire 8 ^ dataIn [7:0] $end
$var wire 1 ) writeEnable $end
$var reg 8 _ dataOut [7:0] $end
$upscope $end
$upscope $end
$upscope $end
$enddefinitions $end
#0
$dumpvars
bx _
bx ^
bx ]
x\
b0 [
xZ
xY
xX
xW
xV
xU
bx T
bx S
bx R
bx Q
bx P
0O
0N
xM
xL
b0 K
xJ
0I
0H
xG
xF
b0 E
xD
0C
0B
xA
x@
b0 ?
x>
bx =
1<
x;
x:
x9
x8
x7
06
bz 5
bx 4
13
x2
01
bx 0
x/
x.
x-
x,
x+
x*
x)
x(
x'
1&
0%
1$
0#
x"
bz !
$end
#10000
b1 ?
1H
b1 E
1N
b1 K
1#
11
#20000
0#
01
#30000
1O
b10 K
1I
b10 E
b10 ?
1#
11
#40000
0#
01
#50000
b11 ?
b11 E
b11 K
1#
11
#60000
0#
01
#70000
1J
1(
b0 K
1D
12
b0 E
0>
0-
b0 ?
1#
11
#80000
0#
01
#90000
1#
11
#100000
0#
01
#110000
1#
11
#120000
0#
01
#130000
1#
11
#140000
0#
01
#150000
1#
11
#160000
0#
01
#170000
1#
11
#180000
0#
01
#190000
1#
11
#200000
0#
01
0&
0<
0$
03
#210000
0H
0N
1#
11
#220000
0#
01
#230000
0O
0I
1#
11
#240000
0#
01
#250000
b1 E
b1 K
1#
11
#260000
0#
01
#270000
b10 K
b10 E
1#
11
#280000
0#
01
#290000
b11 E
b11 K
1#
11
#300000
0#
01
#310000
1L
19
0J
0(
b0 K
1F
18
0D
02
b0 E
1#
11
#320000
0#
01
#330000
0F
08
0L
09
1#
11
#340000
0#
01
#350000
1#
11
#360000
0#
01
#370000
1#
11
#380000
0#
01
1&
1<
1$
13
#390000
1N
1H
1#
11
#400000
0#
01
#410000
1I
1O
1#
11
#420000
0#
01
#430000
b1 K
b1 E
1#
11
#440000
0#
01
#450000
b10 E
b10 K
1#
11
#460000
0#
01
#470000
b11 K
b11 E
1#
11
#480000
0#
01
#490000
1G
1.
1D
12
b0 E
1M
1;
1J
1(
b0 K
1#
11
#500000
0#
01
#510000
0X
0+
z"
0Y
0/
0V
0'
0W
0)
0Z
0M
0;
0G
0.
1#
11
#520000
0#
01
#530000
1#
11
#540000
0#
01
#550000
1#
11
#560000
0#
01
#570000
1#
11
#580000
0#
01
1%
16
0&
0<
#590000
0H
1B
1#
11
#600000
0#
01
#610000
1C
0I
1#
11
#620000
0#
01
#628000
1&
1<
#630000
1H
b1 E
b1 ?
1#
11
#640000
0#
01
#650000
b10 ?
1I
b10 E
1#
11
#660000
0#
01
#670000
b0 E
b11 ?
1#
11
#676000
0%
06
0&
0<
#680000
0#
01
#690000
0B
1A
1:
1>
1-
b0 ?
0H
1#
11
#700000
0#
01
#710000
0I
0C
0A
0:
1#
11
#720000
0#
01
#724000
1&
1<
#730000
b1 ?
1H
b1 E
1#
11
#740000
0#
01
#750000
1I
b10 E
b10 ?
1#
11
#760000
0#
01
#770000
b11 ?
b0 E
1#
11
#772000
0&
0<
#780000
0#
01
#790000
0H
1@
17
0>
0-
b0 ?
1#
11
#800000
0#
01
#810000
0@
07
0I
1#
11
#820000
0#
01
1&
1<
#830000
1H
b1 E
1#
11
#840000
0#
01
#850000
1I
b10 E
1#
11
#860000
0#
01
#868000
0&
0<
#870000
0H
b0 E
1#
11
#880000
0#
01
#890000
0I
1#
11
#900000
0#
01
#910000
b1 E
1#
11
#916000
1&
1<
#920000
0#
01
#930000
1H
b10 E
1#
11
#940000
0#
01
#950000
1I
b11 E
1#
11
#960000
0#
01
#964000
1%
16
0&
0<
#970000
1B
0H
b0 E
1#
11
#980000
0#
01
#990000
0I
1C
1#
11
#1000000
0#
01
#1010000
b1 ?
b1 E
1#
11
#1012000
1&
1<
#1020000
0#
01
#1030000
1H
b10 E
b10 ?
1#
11
#1040000
0#
01
#1050000
b11 ?
1I
b11 E
1#
11
#1060000
0#
01
0%
06
0&
0<
0$
03
#1070000
0N
0H
b0 E
0B
1A
1:
1>
1-
b0 ?
1#
11
#1080000
0#
01
#1090000
0C
0A
0:
0I
0O
1#
11
#1100000
0#
01
#1110000
b1 K
b1 E
b1 ?
1#
11
#1120000
0#
01
#1130000
b10 ?
b10 E
b10 K
1#
11
#1140000
0#
01
#1150000
b11 K
b11 E
b11 ?
1#
11
#1160000
0#
01
#1170000
1@
17
0>
0-
b0 ?
1F
18
0D
02
b0 E
1L
19
0J
0(
b0 K
1#
11
#1180000
0#
01
#1190000
0L
09
0F
08
0@
07
1#
11
#1200000
0#
01
#1210000
1#
11
#1220000
0#
01
1&
1<
#1230000
1H
1#
11
#1240000
0#
01
#1250000
1I
1#
11
#1260000
0#
01
#1270000
b1 E
1#
11
#1280000
0#
01
#1290000
b10 E
1#
11
#1300000
0#
01
#1310000
b11 E
1#
11
#1320000
0#
01
#1330000
1G
1.
1D
12
b0 E
1#
11
#1340000
0#
01
#1350000
0U
b1 [
bx0 R
bx0 =
bx0 Q
bx0 ^
0G
0.
1#
11
#1360000
0#
01
#1370000
1#
11
#1380000
0#
01
0&
0<
#1390000
0H
1#
11
#1400000
0#
01
#1410000
0I
1#
11
#1420000
0#
01
#1430000
b1 E
1#
11
#1440000
0#
01
#1450000
b10 E
1#
11
#1460000
0#
01
#1470000
b11 E
1#
11
#1480000
0#
01
#1490000
1F
18
0D
02
b0 E
1#
11
#1500000
0#
01
#1510000
0F
08
1#
11
#1520000
0#
01
#1530000
1#
11
#1540000
0#
01
1&
1<
#1550000
1H
1#
11
#1560000
0#
01
#1570000
1I
1#
11
#1580000
0#
01
#1590000
b1 E
1#
11
#1600000
0#
01
#1610000
b10 E
1#
11
#1620000
0#
01
#1630000
b11 E
1#
11
#1640000
0#
01
#1650000
1G
1.
1D
12
b0 E
1#
11
#1660000
0#
01
#1670000
bx0 S
b10 [
bx00 R
bx00 =
bx00 Q
bx00 ^
0G
0.
1#
11
#1680000
0#
01
#1690000
1#
11
#1700000
0#
01
0&
0<
#1710000
0H
1#
11
#1720000
0#
01
#1730000
0I
1#
11
#1740000
0#
01
#1750000
b1 E
1#
11
#1760000
0#
01
#1770000
b10 E
1#
11
#1780000
0#
01
#1790000
b11 E
1#
11
#1800000
0#
01
#1810000
1F
18
0D
02
b0 E
1#
11
#1820000
0#
01
#1830000
0F
08
1#
11
#1840000
0#
01
#1850000
1#
11
#1860000
0#
01
1&
1<
#1870000
1H
1#
11
#1880000
0#
01
#1890000
1I
1#
11
#1900000
0#
01
#1910000
b1 E
1#
11
#1920000
0#
01
#1930000
b10 E
1#
11
#1940000
0#
01
#1950000
b11 E
1#
11
#1960000
0#
01
#1970000
1G
1.
1D
12
b0 E
1#
11
#1980000
0#
01
#1990000
bx00 S
b11 [
bx000 R
bx000 =
bx000 Q
bx000 ^
0G
0.
1#
11
#2000000
0#
01
#2010000
1#
11
#2020000
0#
01
0&
0<
#2030000
0H
1#
11
#2040000
0#
01
#2050000
0I
1#
11
#2060000
0#
01
#2070000
b1 E
1#
11
#2080000
0#
01
#2090000
b10 E
1#
11
#2100000
0#
01
#2110000
b11 E
1#
11
#2120000
0#
01
#2130000
1F
18
0D
02
b0 E
1#
11
#2140000
0#
01
#2150000
0F
08
1#
11
#2160000
0#
01
#2170000
1#
11
#2180000
0#
01
1&
1<
#2190000
1H
1#
11
#2200000
0#
01
#2210000
1I
1#
11
#2220000
0#
01
#2230000
b1 E
1#
11
#2240000
0#
01
#2250000
b10 E
1#
11
#2260000
0#
01
#2270000
b11 E
1#
11
#2280000
0#
01
#2290000
1G
1.
1D
12
b0 E
1#
11
#2300000
0#
01
#2310000
bx000 S
b100 [
bx0000 R
bx0000 =
bx0000 Q
bx0000 ^
0G
0.
1#
11
#2320000
0#
01
#2330000
1#
11
#2340000
0#
01
0&
0<
#2350000
0H
1#
11
#2360000
0#
01
#2370000
0I
1#
11
#2380000
0#
01
#2390000
b1 E
1#
11
#2400000
0#
01
#2410000
b10 E
1#
11
#2420000
0#
01
#2430000
b11 E
1#
11
#2440000
0#
01
#2450000
1F
18
0D
02
b0 E
1#
11
#2460000
0#
01
#2470000
0F
08
1#
11
#2480000
0#
01
#2490000
1#
11
#2500000
0#
01
1%
16
1&
1<
#2510000
1H
1B
1#
11
#2520000
0#
01
#2530000
1C
1I
1#
11
#2540000
0#
01
#2550000
b1 E
b1 ?
1#
11
#2560000
0#
01
#2570000
b10 ?
b10 E
1#
11
#2580000
0#
01
#2590000
b11 E
b11 ?
1#
11
#2600000
0#
01
#2610000
1A
1:
1>
1-
b0 ?
1G
1.
1D
12
b0 E
1#
11
#2620000
0#
01
#2630000
1U
bx0000 S
b101 [
bx00001 R
bx00001 =
bx00001 Q
bx00001 ^
0G
0.
0A
0:
1#
11
#2640000
0#
01
#2650000
1#
11
#2660000
0#
01
0&
0<
#2670000
0H
1#
11
#2680000
0#
01
#2690000
0I
1#
11
#2700000
0#
01
#2710000
b1 E
1#
11
#2720000
0#
01
#2730000
b10 E
1#
11
#2740000
0#
01
#2750000
b11 E
1#
11
#2760000
0#
01
#2770000
1F
18
0D
02
b0 E
1#
11
#2780000
0#
01
#2790000
0F
08
1#
11
#2800000
0#
01
#2810000
1#
11
#2820000
0#
01
0%
06
1&
1<
#2830000
1H
0B
1#
11
#2840000
0#
01
#2850000
0C
1I
1#
11
#2860000
0#
01
#2870000
b1 E
b1 ?
1#
11
#2880000
0#
01
#2890000
b10 ?
b10 E
1#
11
#2900000
0#
01
#2910000
b11 E
b11 ?
1#
11
#2920000
0#
01
#2930000
1@
17
0>
0-
b0 ?
1G
1.
1D
12
b0 E
1#
11
#2940000
0#
01
#2950000
0U
bx00001 S
b110 [
bx000010 R
bx000010 =
bx000010 Q
bx000010 ^
0G
0.
0@
07
1#
11
#2960000
0#
01
#2970000
1#
11
#2980000
0#
01
0&
0<
#2990000
0H
1#
11
#3000000
0#
01
#3010000
0I
1#
11
#3020000
0#
01
#3030000
b1 E
1#
11
#3040000
0#
01
#3050000
b10 E
1#
11
#3060000
0#
01
#3070000
b11 E
1#
11
#3080000
0#
01
#3090000
1F
18
0D
02
b0 E
1#
11
#3100000
0#
01
#3110000
0F
08
1#
11
#3120000
0#
01
#3130000
1#
11
#3140000
0#
01
1&
1<
#3150000
1H
1#
11
#3160000
0#
01
#3170000
1I
1#
11
#3180000
0#
01
#3190000
b1 E
1#
11
#3200000
0#
01
#3210000
b10 E
1#
11
#3220000
0#
01
#3230000
b11 E
1#
11
#3240000
0#
01
#3250000
1G
1.
1D
12
b0 E
1#
11
#3260000
0#
01
#3270000
bx000010 S
b111 [
bx0000100 R
bx0000100 =
bx0000100 Q
bx0000100 ^
0G
0.
1#
11
#3280000
0#
01
#3290000
1#
11
#3300000
0#
01
0&
0<
#3310000
0H
1#
11
#3320000
0#
01
#3330000
0I
1#
11
#3340000
0#
01
#3350000
b1 E
1#
11
#3360000
0#
01
#3370000
b10 E
1#
11
#3380000
0#
01
#3390000
b11 E
1#
11
#3400000
0#
01
#3410000
1F
18
0D
02
b0 E
1#
11
#3420000
0#
01
#3430000
0F
08
1#
11
#3440000
0#
01
#3450000
1#
11
#3460000
0#
01
1&
1<
#3470000
1H
1#
11
#3480000
0#
01
#3490000
1I
1#
11
#3500000
0#
01
#3510000
b1 E
1#
11
#3520000
0#
01
#3530000
b10 E
1#
11
#3540000
0#
01
#3550000
b11 E
1#
11
#3560000
0#
01
#3570000
1G
1.
1D
12
b0 E
1#
11
#3580000
0#
01
#3590000
0*
b100 S
1V
1'
b1000 [
b1000 R
b1000 =
b1000 Q
b1000 ^
0G
0.
1#
11
#3600000
0#
01
#3610000
b100 T
b100 0
b100 ]
1#
11
#3620000
0#
01
0&
0<
#3630000
0H
1#
11
#3640000
0#
01
#3650000
0I
1#
11
#3660000
0#
01
#3670000
b1 E
1#
11
#3680000
0#
01
#3690000
b10 E
1#
11
#3700000
0#
01
#3710000
b11 E
1#
11
#3720000
0#
01
#3730000
1F
18
0D
02
b0 E
1#
11
#3740000
0#
01
#3750000
0\
0,
0F
08
1#
11
#3760000
0#
01
#3770000
1#
11
#3780000
0#
01
1&
1<
#3790000
1H
1#
11
#3800000
0#
01
#3810000
1I
1#
11
#3820000
0#
01
#3830000
b1 E
1#
11
#3840000
0#
01
#3850000
b10 E
1#
11
#3860000
0#
01
#3870000
b11 E
1#
11
#3880000
0#
01
#3890000
1G
1.
1D
12
b0 E
1#
11
#3900000
0#
01
#3910000
b1000 S
1Z
0V
0'
b1001 [
b10000 R
b10000 =
b10000 Q
b10000 ^
0G
0.
1#
11
#3920000
0#
01
#3930000
1#
11
#3940000
0#
01
0&
0<
#3950000
0H
1#
11
#3960000
0#
01
#3970000
0I
1#
11
#3980000
0#
01
#3990000
b1 E
1#
11
#4000000
0#
01
#4010000
b10 E
1#
11
#4020000
0#
01
#4030000
b11 E
1#
11
#4040000
0#
01
#4050000
1F
18
0D
02
b0 E
1#
11
#4060000
0#
01
#4070000
0F
08
1#
11
#4080000
0#
01
#4090000
1#
11
#4100000
0#
01
1&
1<
#4110000
1H
1#
11
#4120000
0#
01
#4130000
1I
1#
11
#4140000
0#
01
#4150000
b1 E
1#
11
#4160000
0#
01
#4170000
b10 E
1#
11
#4180000
0#
01
#4190000
b11 E
1#
11
#4200000
0#
01
#4210000
1G
1.
1D
12
b0 E
1#
11
#4220000
0#
01
#4230000
b10000 S
b1010 [
b100000 R
b100000 =
b100000 Q
b100000 ^
0G
0.
1#
11
#4240000
0#
01
#4250000
1#
11
#4260000
0#
01
0&
0<
#4270000
0H
1#
11
#4280000
0#
01
#4290000
0I
1#
11
#4300000
0#
01
#4310000
b1 E
1#
11
#4320000
0#
01
#4330000
b10 E
1#
11
#4340000
0#
01
#4350000
b11 E
1#
11
#4360000
0#
01
#4370000
1F
18
0D
02
b0 E
1#
11
#4380000
0#
01
#4390000
0F
08
1#
11
#4400000
0#
01
#4410000
1#
11
#4420000
0#
01
1&
1<
#4430000
1H
1#
11
#4440000
0#
01
#4450000
1I
1#
11
#4460000
0#
01
#4470000
b1 E
1#
11
#4480000
0#
01
#4490000
b10 E
1#
11
#4500000
0#
01
#4510000
b11 E
1#
11
#4520000
0#
01
#4530000
1G
1.
1D
12
b0 E
1#
11
#4540000
0#
01
#4550000
b100000 S
b1011 [
b1000000 R
b1000000 =
b1000000 Q
b1000000 ^
0G
0.
1#
11
#4560000
0#
01
#4570000
1#
11
#4580000
0#
01
0&
0<
#4590000
0H
1#
11
#4600000
0#
01
#4610000
0I
1#
11
#4620000
0#
01
#4630000
b1 E
1#
11
#4640000
0#
01
#4650000
b10 E
1#
11
#4660000
0#
01
#4670000
b11 E
1#
11
#4680000
0#
01
#4690000
1F
18
0D
02
b0 E
1#
11
#4700000
0#
01
#4710000
0F
08
1#
11
#4720000
0#
01
#4730000
1#
11
#4740000
0#
01
1&
1<
#4750000
1H
1#
11
#4760000
0#
01
#4770000
1I
1#
11
#4780000
0#
01
#4790000
b1 E
1#
11
#4800000
0#
01
#4810000
b10 E
1#
11
#4820000
0#
01
#4830000
b11 E
1#
11
#4840000
0#
01
#4850000
1G
1.
1D
12
b0 E
1#
11
#4860000
0#
01
#4870000
1*
b1000000 S
b1100 [
b10000000 R
b10000000 =
b10000000 Q
b10000000 ^
0G
0.
1#
11
#4880000
0#
01
#4890000
1#
11
#4900000
0#
01
0&
0<
#4910000
0H
1#
11
#4920000
0#
01
#4930000
0I
1#
11
#4940000
0#
01
#4950000
b1 E
1#
11
#4960000
0#
01
#4970000
b10 E
1#
11
#4980000
0#
01
#4990000
b11 E
1#
11
#5000000
0#
01
#5010000
1F
18
0D
02
b0 E
1#
11
#5020000
0#
01
#5030000
1\
1,
0F
08
1#
11
#5040000
0#
01
#5050000
1#
11
#5060000
0#
01
1%
16
1&
1<
#5070000
1H
1B
1#
11
#5080000
0#
01
#5090000
1C
1I
1#
11
#5100000
0#
01
#5110000
b1 E
b1 ?
1#
11
#5120000
0#
01
#5130000
b10 ?
b10 E
1#
11
#5140000
0#
01
#5150000
b11 E
b11 ?
1#
11
#5160000
0#
01
#5170000
1A
1:
1>
1-
b0 ?
1G
1.
1D
12
b0 E
1#
11
#5180000
0#
01
#5190000
0*
1U
b0 S
b1101 [
b1 R
b1 =
b1 Q
b1 ^
0G
0.
0A
0:
1#
11
#5200000
0#
01
#5210000
1#
11
#5220000
0#
01
0&
0<
#5230000
0H
1#
11
#5240000
0#
01
#5250000
0I
1#
11
#5260000
0#
01
#5270000
b1 E
1#
11
#5280000
0#
01
#5290000
b10 E
1#
11
#5300000
0#
01
#5310000
b11 E
1#
11
#5320000
0#
01
#5330000
1F
18
0D
02
b0 E
1#
11
#5340000
0#
01
#5350000
0\
0,
0F
08
1#
11
#5360000
0#
01
#5370000
1#
11
#5380000
0#
01
1&
1<
#5390000
1H
1#
11
#5400000
0#
01
#5410000
1I
1#
11
#5420000
0#
01
#5430000
b1 E
1#
11
#5440000
0#
01
#5450000
b10 E
1#
11
#5460000
0#
01
#5470000
b11 E
1#
11
#5480000
0#
01
#5490000
1G
1.
1D
12
b0 E
1#
11
#5500000
0#
01
#5510000
b1 S
b1110 [
b11 R
b11 =
b11 Q
b11 ^
0G
0.
1#
11
#5520000
0#
01
#5530000
1#
11
#5540000
0#
01
0&
0<
#5550000
0H
1#
11
#5560000
0#
01
#5570000
0I
1#
11
#5580000
0#
01
#5590000
b1 E
1#
11
#5600000
0#
01
#5610000
b10 E
1#
11
#5620000
0#
01
#5630000
b11 E
1#
11
#5640000
0#
01
#5650000
1F
18
0D
02
b0 E
1#
11
#5660000
0#
01
#5670000
0F
08
1#
11
#5680000
0#
01
#5690000
1#
11
#5700000
0#
01
0%
06
1&
1<
#5710000
1H
0B
1#
11
#5720000
0#
01
#5730000
0C
1I
1#
11
#5740000
0#
01
#5750000
b1 E
b1 ?
1#
11
#5760000
0#
01
#5770000
b10 ?
b10 E
1#
11
#5780000
0#
01
#5790000
b11 E
b11 ?
1#
11
#5800000
0#
01
#5810000
1@
17
0>
0-
b0 ?
1G
1.
1D
12
b0 E
1#
11
#5820000
0#
01
#5830000
0U
b11 S
b1111 [
b110 R
b110 =
b110 Q
b110 ^
0G
0.
0@
07
1#
11
#5840000
0#
01
#5850000
1#
11
#5860000
0#
01
0&
0<
#5870000
0H
1#
11
#5880000
0#
01
#5890000
0I
1#
11
#5900000
0#
01
#5910000
b1 E
1#
11
#5920000
0#
01
#5930000
b10 E
1#
11
#5940000
0#
01
#5950000
b11 E
1#
11
#5960000
0#
01
#5970000
1F
18
0D
02
b0 E
1#
11
#5980000
0#
01
#5990000
0F
08
1#
11
#6000000
0#
01
#6010000
1#
11
#6020000
0#
01
1&
1<
#6030000
1H
1#
11
#6040000
0#
01
#6050000
1I
1#
11
#6060000
0#
01
#6070000
b1 E
1#
11
#6080000
0#
01
#6090000
b10 E
1#
11
#6100000
0#
01
#6110000
b11 E
1#
11
#6120000
0#
01
#6130000
1G
1.
1D
12
b0 E
1#
11
#6140000
0#
01
#6150000
b110 S
1W
1)
b0 [
b1100 R
b1100 =
b1100 Q
b1100 ^
0G
0.
1#
11
#6160000
0#
01
#6170000
1#
11
#6180000
0#
01
0&
0<
#6190000
b1100 _
b1100 4
b1100 P
0H
1#
11
#6200000
0#
01
#6210000
0I
1#
11
#6220000
0#
01
#6230000
b1 E
1#
11
#6240000
0#
01
#6250000
b10 E
1#
11
#6260000
0#
01
#6270000
b11 E
1#
11
#6280000
0#
01
#6290000
1F
18
0D
02
b0 E
1#
11
#6300000
0#
01
#6310000
0F
08
1#
11
#6320000
0#
01
#6330000
1#
11
#6340000
0#
01
1&
1<
#6350000
1H
1#
11
#6360000
0#
01
#6370000
1I
1#
11
#6380000
0#
01
#6390000
b1 E
1#
11
#6400000
0#
01
#6410000
b10 E
1#
11
#6420000
0#
01
#6430000
b11 E
1#
11
#6440000
0#
01
#6450000
1G
1.
1D
12
b0 E
1#
11
#6460000
0#
01
#6470000
b1100 S
b1 [
b11000 R
b11000 =
b11000 Q
b11000 ^
0G
0.
1#
11
#6480000
0#
01
#6490000
1#
11
#6500000
0#
01
0&
0<
#6510000
b11000 _
b11000 4
b11000 P
0H
1#
11
#6520000
0#
01
#6530000
0I
1#
11
#6540000
0#
01
#6550000
b1 E
1#
11
#6560000
0#
01
#6570000
b10 E
1#
11
#6580000
0#
01
#6590000
b11 E
1#
11
#6600000
0#
01
#6610000
1F
18
0D
02
b0 E
1#
11
#6620000
0#
01
#6630000
0F
08
1#
11
#6640000
0#
01
#6650000
1#
11
#6660000
0#
01
1$
13
#6670000
1N
1#
11
#6680000
0#
01
#6690000
1O
1#
11
#6700000
0#
01
#6710000
b1 K
1#
11
#6720000
0#
01
#6730000
b10 K
1#
11
#6740000
0#
01
#6750000
b11 K
1#
11
#6760000
0#
01
#6770000
1M
1;
1J
1(
b0 K
1#
11
#6780000
0#
01
#6790000
0M
0;
1#
11
