SPI.vcd
$date
	Tue Oct 31 14:21:14 2017
$end
$version
	Icarus Verilog
$end
$timescale
	1ps
$end
$scope module spitest $end
$var wire 4 ! leds [3:0] $end
$var wire 1 " miso_pin $end
$var reg 1 # clk $end
$var reg 1 $ cs_pin $end
$var reg 1 % mosi_pin $end
$var reg 1 & sclk_pin $end
$scope module spitime $end
$var wire 1 ' ADDR_WE $end
$var wire 1 ( ChipSel $end
$var wire 1 ) DM_WE $end
$var wire 1 * MISO $end
$var wire 1 + MISO_BUFE $end
$var wire 1 , MISO_PreBuff $end
$var wire 1 - MOSI $end
$var wire 1 . SCLKEdge $end
$var wire 1 / SR_WE $end
$var wire 7 0 address [6:0] $end
$var wire 1 1 clk $end
$var wire 1 2 conditioned1 $end
$var wire 1 3 cs_pin $end
$var wire 8 4 dataMemOut [7:0] $end
$var wire 4 5 leds [3:0] $end
$var wire 1 " miso_pin $end
$var wire 1 6 mosi_pin $end
$var wire 1 7 negativeedge0 $end
$var wire 1 8 negativeedge1 $end
$var wire 1 9 negativeedge2 $end
$var wire 1 : positiveedge0 $end
$var wire 1 ; positiveedge2 $end
$var wire 1 < sclk_pin $end
$var wire 8 = shiftRegOutP [7:0] $end
$scope module serialInCond $end
$var wire 1 1 clk $end
$var wire 1 6 noisysignal $end
$var reg 1 > conditioned $end
$var reg 3 ? counter [2:0] $end
$var reg 1 @ negativeedge $end
$var reg 1 A positiveedge $end
$var reg 1 B synchronizer0 $end
$var reg 1 C synchronizer1 $end
$upscope $end
$scope module SCLKCond $end
$var wire 1 1 clk $end
$var wire 1 < noisysignal $end
$var reg 1 D conditioned $end
$var reg 3 E counter [2:0] $end
$var reg 1 F negativeedge $end
$var reg 1 G positiveedge $end
$var reg 1 H synchronizer0 $end
$var reg 1 I synchronizer1 $end
$upscope $end
$scope module ChipSelCond $end
$var wire 1 1 clk $end
$var wire 1 3 noisysignal $end
$var reg 1 J conditioned $end
$var reg 3 K counter [2:0] $end
$var reg 1 L negativeedge $end
$var reg 1 M positiveedge $end
$var reg 1 N synchronizer0 $end
$var reg 1 O synchronizer1 $end
$upscope $end
$scope module SPIShift $end
$var wire 1 1 clk $end
$var wire 8 P parallelDataIn [7:0] $end
$var wire 8 Q parallelDataOut [7:0] $end
$var wire 1 / parallelLoad $end
$var wire 1 . peripheralClkEdge $end
$var wire 1 - serialDataIn $end
$var wire 1 * serialDataOut $end
$var reg 8 R shiftregistermem [7:0] $end
$upscope $end
$scope module DFFAddr $end
$var wire 7 S d [6:0] $end
$var wire 1 ' enable $end
$var wire 1 1 trigger $end
$var reg 7 T q [6:0] $end
$upscope $end
$scope module SPIFSM $end
$var wire 1 ( ChipSelCond $end
$var wire 1 . SCLKEdge $end
$var wire 1 1 clk $end
$var wire 1 U shiftRegOutPZero $end
$var reg 1 V ADDR_WE $end
$var reg 1 W DM_WE $end
$var reg 1 X MISO_BUFE $end
$var reg 1 Y SR_WE $end
$var reg 1 Z WriteController $end
$var reg 5 [ counter [4:0] $end
$upscope $end
$scope module DFFMISO $end
$var wire 1 * d $end
$var wire 1 8 enable $end
$var wire 1 1 trigger $end
$var reg 1 \ q $end
$upscope $end
$scope module data $end
$var wire 7 ] address [6:0] $end
$var wire 1 1 clk $end
$var wire 8 ^ dataIn [7:0] $end
$var wire 1 ) writeEnable $end
$var reg 8 _ dataOut [7:0] $end
$upscope $end
$upscope $end
$upscope $end
$enddefinitions $end
#0
$dumpvars
bx _
bx ^
bx ]
x\
b0 [
0Z
xY
xX
xW
xV
xU
bx T
bx S
bx R
bx Q
bx P
0O
0N
xM
xL
b0 K
xJ
0I
0H
xG
xF
b0 E
xD
0C
0B
xA
x@
b0 ?
x>
bx =
1<
x;
x:
x9
x8
x7
06
bz 5
bx 4
13
x2
01
bx 0
x/
x.
x-
x,
x+
x*
x)
x(
x'
1&
0%
1$
0#
x"
bz !
$end
#10000
b1 ?
1H
b1 E
1N
b1 K
1#
11
#20000
0#
01
#30000
1O
b10 K
1I
b10 E
b10 ?
1#
11
#40000
0#
01
#50000
b11 ?
b11 E
b11 K
1#
11
#60000
0#
01
#70000
1J
1(
b0 K
1D
12
b0 E
0>
0-
b0 ?
1#
11
#80000
0#
01
#90000
1#
11
#100000
0#
01
#110000
1#
11
#120000
0#
01
#130000
1#
11
#140000
0#
01
#150000
1#
11
#160000
0#
01
#170000
1#
11
#180000
0#
01
#190000
1#
11
#200000
0#
01
#210000
1#
11
#220000
0#
01
#230000
1#
11
#240000
0#
01
#250000
1#
11
#260000
0#
01
#270000
1#
11
#280000
0#
01
#290000
1#
11
#300000
0#
01
#310000
1#
11
#320000
0#
01
#330000
1#
11
#340000
0#
01
#350000
1#
11
#360000
0#
01
#370000
1#
11
#380000
0#
01
#390000
1#
11
#400000
0#
01
#410000
1#
11
#420000
0#
01
#430000
1#
11
#440000
0#
01
#450000
1#
11
#460000
0#
01
#470000
1#
11
#480000
0#
01
#490000
1#
11
#500000
0#
01
0&
0<
0$
03
#510000
0N
0H
1#
11
#520000
0#
01
#530000
0I
0O
1#
11
#540000
0#
01
#550000
b1 K
b1 E
1#
11
#560000
0#
01
#570000
b10 E
b10 K
1#
11
#580000
0#
01
#590000
b11 K
b11 E
1#
11
#600000
0#
01
#610000
1F
18
0D
02
b0 E
1L
19
0J
0(
b0 K
1#
11
#620000
0#
01
#630000
0L
09
0F
08
1#
11
#640000
0#
01
#650000
1#
11
#660000
0#
01
#670000
1#
11
#680000
0#
01
#690000
1#
11
#700000
0#
01
#710000
1#
11
#720000
0#
01
#730000
1#
11
#740000
0#
01
#750000
1#
11
#760000
0#
01
#770000
1#
11
#780000
0#
01
#790000
1#
11
#800000
0#
01
#810000
1#
11
#820000
0#
01
#830000
1#
11
#840000
0#
01
#850000
1#
11
#860000
0#
01
#870000
1#
11
#880000
0#
01
#890000
1#
11
#900000
0#
01
#910000
1#
11
#920000
0#
01
#930000
1#
11
#940000
0#
01
#950000
1#
11
#960000
0#
01
#970000
1#
11
#980000
0#
01
#990000
1#
11
#1000000
0#
01
1&
1<
1$
13
#1010000
1H
1N
1#
11
#1020000
0#
01
#1030000
1O
1I
1#
11
#1040000
0#
01
#1050000
0H
b1 E
0N
b1 K
1#
11
0&
0<
0$
03
#1060000
0#
01
#1070000
0O
b10 K
0I
b10 E
1#
11
#1080000
0#
01
#1090000
b0 E
b0 K
1#
11
#1100000
0#
01
1&
1<
#1110000
1H
1#
11
#1120000
0#
01
#1130000
1I
1#
11
#1140000
0#
01
#1150000
0H
b1 E
1#
11
0&
0<
#1160000
0#
01
#1170000
0I
b10 E
1#
11
#1180000
0#
01
#1190000
b0 E
1#
11
#1200000
0#
01
1&
1<
#1210000
1H
1#
11
#1220000
0#
01
#1230000
1I
1#
11
#1240000
0#
01
#1250000
0H
b1 E
1#
11
0&
0<
#1260000
0#
01
#1270000
0I
b10 E
1#
11
#1280000
0#
01
#1290000
b0 E
1#
11
#1300000
0#
01
1&
1<
#1310000
1H
1#
11
#1320000
0#
01
#1330000
1I
1#
11
#1340000
0#
01
#1350000
0H
b1 E
1B
1#
11
1%
16
0&
0<
#1360000
0#
01
#1370000
1C
0I
b10 E
1#
11
#1380000
0#
01
#1390000
b0 E
b1 ?
1#
11
#1400000
0#
01
0%
06
1&
1<
#1410000
0B
b10 ?
1H
1#
11
#1420000
0#
01
#1430000
1I
0C
b11 ?
1#
11
#1440000
0#
01
#1450000
b0 ?
0H
b1 E
1#
11
0&
0<
#1460000
0#
01
#1470000
0I
b10 E
1#
11
#1480000
0#
01
#1490000
b0 E
1#
11
#1500000
0#
01
1&
1<
#1510000
1H
1#
11
#1520000
0#
01
#1530000
1I
1#
11
#1540000
0#
01
#1550000
0H
b1 E
1#
11
0&
0<
#1560000
0#
01
#1570000
0I
b10 E
1#
11
#1580000
0#
01
#1590000
b0 E
1#
11
#1600000
0#
01
1&
1<
1$
13
#1610000
1H
1N
1#
11
#1620000
0#
01
#1630000
1O
1I
1#
11
#1640000
0#
01
#1650000
0H
b1 E
0N
b1 K
1#
11
0&
0<
0$
03
#1660000
0#
01
#1670000
0O
b10 K
0I
b10 E
1#
11
#1680000
0#
01
#1690000
b0 E
b0 K
1#
11
#1700000
0#
01
1&
1<
#1710000
1H
1#
11
#1720000
0#
01
#1730000
1I
1#
11
#1740000
0#
01
#1750000
0H
b1 E
1#
11
0&
0<
#1760000
0#
01
#1770000
0I
b10 E
1#
11
#1780000
0#
01
#1790000
b0 E
1#
11
#1800000
0#
01
#1810000
1#
11
#1820000
0#
01
#1830000
1#
11
#1840000
0#
01
#1850000
1H
1#
11
1&
1<
#1860000
0#
01
#1870000
1I
1#
11
#1880000
0#
01
#1890000
b1 E
1#
11
#1900000
0#
01
0&
0<
#1910000
0H
b10 E
1#
11
#1920000
0#
01
#1930000
0I
b11 E
1#
11
#1940000
0#
01
#1950000
1H
b0 E
1#
11
1&
1<
#1960000
0#
01
#1970000
1I
1#
11
#1980000
0#
01
#1990000
b1 E
1#
11
#2000000
0#
01
1%
16
0&
0<
#2010000
1B
0H
b10 E
1#
11
#2020000
0#
01
#2030000
0I
b11 E
1C
1#
11
#2040000
0#
01
#2050000
0B
b1 ?
1H
b0 E
1#
11
0%
06
1&
1<
#2060000
0#
01
#2070000
1I
0C
b10 ?
1#
11
#2080000
0#
01
#2090000
b0 ?
b1 E
1#
11
#2100000
0#
01
0&
0<
#2110000
0H
b10 E
1#
11
#2120000
0#
01
#2130000
0I
b11 E
1#
11
#2140000
0#
01
#2150000
1H
b0 E
1#
11
1&
1<
#2160000
0#
01
#2170000
1I
1#
11
#2180000
0#
01
#2190000
b1 E
1#
11
#2200000
0#
01
0&
0<
#2210000
0H
b10 E
1#
11
#2220000
0#
01
#2230000
0I
b11 E
1#
11
#2240000
0#
01
#2250000
1H
b0 E
1N
1#
11
1&
1<
1$
13
#2260000
0#
01
#2270000
1O
1I
1#
11
#2280000
0#
01
#2290000
b1 E
b1 K
1#
11
#2300000
0#
01
0&
0<
0$
03
#2310000
0N
b10 K
0H
b10 E
1#
11
#2320000
0#
01
#2330000
0I
b11 E
0O
b11 K
1#
11
#2340000
0#
01
#2350000
b0 K
1H
b0 E
1#
11
1&
1<
#2360000
0#
01
#2370000
1I
1#
11
#2380000
0#
01
#2390000
b1 E
1#
11
#2400000
0#
01
0&
0<
#2410000
0H
b10 E
1#
11
#2420000
0#
01
#2430000
0I
b11 E
1#
11
#2440000
0#
01
#2450000
b0 E
1#
11
#2460000
0#
01
#2470000
1#
11
#2480000
0#
01
#2490000
1#
11
#2500000
0#
01
1&
1<
#2510000
1H
1#
11
#2520000
0#
01
#2530000
1I
1#
11
#2540000
0#
01
#2550000
0H
b1 E
1#
11
0&
0<
#2560000
0#
01
#2570000
0I
b10 E
1#
11
#2580000
0#
01
#2590000
b0 E
1#
11
#2600000
0#
01
1&
1<
#2610000
1H
1#
11
#2620000
0#
01
#2630000
1I
1#
11
#2640000
0#
01
#2650000
1B
0H
b1 E
1#
11
1%
16
0&
0<
#2660000
0#
01
#2670000
0I
b10 E
1C
1#
11
#2680000
0#
01
#2690000
b1 ?
b0 E
1#
11
#2700000
0#
01
0%
06
1&
1<
#2710000
1H
0B
b10 ?
1#
11
#2720000
0#
01
#2730000
0C
b11 ?
1I
1#
11
#2740000
0#
01
#2750000
0H
b1 E
b0 ?
1#
11
0&
0<
#2760000
0#
01
#2770000
0I
b10 E
1#
11
#2780000
0#
01
#2790000
b0 E
1#
11
#2800000
0#
01
1&
1<
#2810000
1H
1#
11
#2820000
0#
01
#2830000
1I
1#
11
#2840000
0#
01
#2850000
0H
b1 E
1#
11
0&
0<
#2860000
0#
01
#2870000
0I
b10 E
1#
11
#2880000
0#
01
#2890000
b0 E
1#
11
#2900000
0#
01
1&
1<
1$
13
#2910000
1N
1H
1#
11
#2920000
0#
01
#2930000
1I
1O
1#
11
#2940000
0#
01
#2950000
0N
b1 K
0H
b1 E
1#
11
0&
0<
0$
03
#2960000
0#
01
#2970000
0I
b10 E
0O
b10 K
1#
11
#2980000
0#
01
#2990000
b0 K
b0 E
1#
11
#3000000
0#
01
1&
1<
#3010000
1H
1#
11
#3020000
0#
01
#3030000
1I
1#
11
#3040000
0#
01
#3050000
0H
b1 E
1#
11
0&
0<
#3060000
0#
01
#3070000
0I
b10 E
1#
11
#3080000
0#
01
#3090000
b0 E
1#
11
