spimemory.vcd
$date
	Wed Nov  1 15:59:20 2017
$end
$version
	Icarus Verilog
$end
$timescale
	1ps
$end
$scope module testSPIMemory $end
$var wire 1 ! miso_pin $end
$var reg 1 " clk $end
$var reg 1 # cs_pin $end
$var reg 1 $ mosi_pin $end
$var reg 1 % sclk_pin $end
$var reg 8 & testOut [7:0] $end
$scope module spi $end
$var wire 1 ' ADDR_WE $end
$var wire 1 ( DM_WE $end
$var wire 1 ) MISO_BUFE $end
$var wire 1 * SR_WE $end
$var wire 8 + address [7:0] $end
$var wire 1 , chip_select $end
$var wire 1 - clk $end
$var wire 1 . cs_pin $end
$var wire 8 / dataMemoryOut [7:0] $end
$var wire 4 0 leds [3:0] $end
$var wire 1 ! miso_pin $end
$var wire 1 1 mosi_conditioned $end
$var wire 1 2 mosi_pin $end
$var wire 1 3 q $end
$var wire 1 4 sclk_neg $end
$var wire 1 5 sclk_pin $end
$var wire 1 6 sclk_pos $end
$var wire 1 7 serialOut $end
$var wire 1 8 shiftRegOut $end
$var wire 8 9 shiftRegOutP [7:0] $end
$scope module c1 $end
$var wire 1 - clk $end
$var wire 1 2 noisysignal $end
$var reg 1 : conditioned $end
$var reg 1 ; negativeedge $end
$var reg 1 < positiveedge $end
$var reg 3 = prev_vals [2:0] $end
$upscope $end
$scope module c2 $end
$var wire 1 - clk $end
$var wire 1 5 noisysignal $end
$var reg 1 > conditioned $end
$var reg 1 ? negativeedge $end
$var reg 1 @ positiveedge $end
$var reg 1 A prev_vals $end
$upscope $end
$scope module c3 $end
$var wire 1 - clk $end
$var wire 1 . noisysignal $end
$var reg 1 B conditioned $end
$var reg 1 C negativeedge $end
$var reg 1 D positiveedge $end
$var reg 3 E prev_vals [2:0] $end
$upscope $end
$scope module sr $end
$var wire 1 - clk $end
$var wire 8 F parallelDataIn [7:0] $end
$var wire 8 G parallelDataOut [7:0] $end
$var wire 1 * parallelLoad $end
$var wire 1 6 peripheralClkEdge $end
$var wire 1 1 serialDataIn $end
$var wire 1 7 serialDataOut $end
$var reg 8 H data [7:0] $end
$upscope $end
$scope module dff1 $end
$var wire 8 I d [7:0] $end
$var wire 1 ' enable $end
$var wire 1 - trigger $end
$var reg 8 J q [7:0] $end
$upscope $end
$scope module dff2 $end
$var wire 1 7 d $end
$var wire 1 4 enable $end
$var wire 1 - trigger $end
$var reg 1 K q $end
$upscope $end
$scope module dataMemory $end
$var wire 7 L address [6:0] $end
$var wire 1 - clk $end
$var wire 8 M dataIn [7:0] $end
$var wire 1 ( writeEnable $end
$var reg 8 N dataOut [7:0] $end
$upscope $end
$scope module fsm $end
$var wire 1 , chip_select $end
$var wire 1 - clk $end
$var wire 1 8 r_w $end
$var wire 1 6 sclk_posedge $end
$var reg 1 O ADDR_WE $end
$var reg 1 P DM_WE $end
$var reg 1 Q MISO_BUFE $end
$var reg 1 R SR_WE $end
$var integer 32 S counter [31:0] $end
$var reg 8 T state [7:0] $end
$upscope $end
$upscope $end
$upscope $end
$enddefinitions $end
#0
$dumpvars
b0 T
b0 S
xR
xQ
xP
xO
bx N
bz M
bx L
xK
bx J
bx I
bx H
bx G
bz F
bx E
xD
xC
xB
xA
x@
x?
x>
bx =
x<
x;
x:
bx 9
z8
x7
x6
05
x4
x3
02
x1
bz 0
bz /
0.
0-
x,
bx +
x*
x)
x(
x'
bx &
0%
0$
0#
0"
x!
$end
#1000
z!
bx0 =
0A
bx0 E
0R
0*
0O
0'
0P
0(
0Q
0)
1"
1-
#2000
0"
0-
#3000
bx00 E
0>
0?
04
bx00 =
1"
1-
#4000
0"
0-
#5000
b0 =
b0 E
1"
1-
#6000
0"
0-
#7000
0B
0,
0C
0:
01
0;
1"
1-
#8000
0"
0-
#9000
1"
1-
#10000
0"
0-
1%
15
#11000
1A
1"
1-
#12000
0"
0-
#13000
1>
1@
16
1"
1-
#14000
0"
0-
#15000
b1 T
bx0 H
0@
06
1"
1-
#16000
0"
0-
#17000
1O
1'
1"
1-
#18000
0"
0-
#19000
1"
1-
#20000
0"
0-
0%
05
#21000
0A
1"
1-
#22000
0"
0-
#23000
0>
1?
14
1"
1-
#24000
0"
0-
#25000
0?
04
1"
1-
#26000
0"
0-
#27000
1"
1-
#28000
0"
0-
#29000
1"
1-
#30000
0"
0-
1%
15
#31000
1A
1"
1-
#32000
0"
0-
#33000
1>
1@
16
1"
1-
#34000
0"
0-
#35000
b1 S
bx00 H
0@
06
1"
1-
#36000
0"
0-
#37000
1"
1-
#38000
0"
0-
#39000
1"
1-
#40000
0"
0-
0%
05
#41000
0A
1"
1-
#42000
0"
0-
#43000
0>
1?
14
1"
1-
#44000
0"
0-
#45000
0?
04
1"
1-
#46000
0"
0-
#47000
1"
1-
#48000
0"
0-
#49000
1"
1-
#50000
0"
0-
1%
15
#51000
1A
1"
1-
#52000
0"
0-
#53000
1>
1@
16
1"
1-
#54000
0"
0-
#55000
b10 S
bx000 H
0@
06
1"
1-
#56000
0"
0-
#57000
1"
1-
#58000
0"
0-
#59000
1"
1-
#60000
0"
0-
0%
05
#61000
0A
1"
1-
#62000
0"
0-
#63000
0>
1?
14
1"
1-
#64000
0"
0-
#65000
0?
04
1"
1-
#66000
0"
0-
#67000
1"
1-
#68000
0"
0-
#69000
1"
1-
#70000
0"
0-
1%
15
#71000
1A
1"
1-
#72000
0"
0-
#73000
1>
1@
16
1"
1-
#74000
0"
0-
#75000
b11 S
bx0000 H
0@
06
1"
1-
#76000
0"
0-
#77000
1"
1-
#78000
0"
0-
#79000
1"
1-
#80000
0"
0-
0%
05
#81000
0A
1"
1-
#82000
0"
0-
#83000
0>
1?
14
1"
1-
#84000
0"
0-
#85000
0?
04
1"
1-
#86000
0"
0-
#87000
1"
1-
#88000
0"
0-
#89000
1"
1-
#90000
0"
0-
1%
15
#91000
1A
1"
1-
#92000
0"
0-
#93000
1>
1@
16
1"
1-
#94000
0"
0-
#95000
b100 S
bx00000 H
0@
06
1"
1-
#96000
0"
0-
#97000
1"
1-
#98000
0"
0-
#99000
1"
1-
#100000
0"
0-
0%
05
#101000
0A
1"
1-
#102000
0"
0-
#103000
0>
1?
14
1"
1-
#104000
0"
0-
#105000
0?
04
1"
1-
#106000
0"
0-
#107000
1"
1-
#108000
0"
0-
#109000
1"
1-
#110000
0"
0-
1%
15
#111000
1A
1"
1-
#112000
0"
0-
#113000
1>
1@
16
1"
1-
#114000
0"
0-
#115000
b101 S
bx000000 H
0@
06
1"
1-
#116000
0"
0-
#117000
1"
1-
#118000
0"
0-
#119000
1"
1-
#120000
0"
0-
0%
05
#121000
0A
1"
1-
#122000
0"
0-
#123000
0>
1?
14
1"
1-
#124000
0"
0-
#125000
0?
04
1"
1-
#126000
0"
0-
#127000
1"
1-
#128000
0"
0-
#129000
1"
1-
#130000
0"
0-
1%
15
#131000
1A
1"
1-
#132000
0"
0-
#133000
1>
1@
16
1"
1-
#134000
0"
0-
#135000
b110 S
bx0000000 H
0@
06
1"
1-
#136000
0"
0-
#137000
1"
1-
#138000
0"
0-
#139000
1"
1-
#140000
0"
0-
0%
05
1$
12
#141000
b1 =
0A
1"
1-
#142000
0"
0-
#143000
0>
1?
14
b11 =
1"
1-
#144000
0"
0-
#145000
b111 =
0?
04
1"
1-
#146000
0"
0-
#147000
1:
11
1<
1"
1-
#148000
0"
0-
#149000
0<
1"
1-
#150000
0"
0-
1%
15
#151000
1A
1"
1-
#152000
0"
0-
#153000
1>
1@
16
1"
1-
#154000
0"
0-
#155000
07
b10 T
b0 S
b1 H
0@
06
1"
1-
#156000
0"
0-
#157000
0O
0'
1"
1-
#158000
0"
0-
#159000
1"
1-
#160000
0"
0-
0%
05
x$
x2
#161000
b11x =
0A
1"
1-
#162000
0"
0-
#163000
0>
1?
14
b1xx =
1"
1-
#164000
0"
0-
#165000
bx =
0?
04
0K
03
1"
1-
#166000
0"
0-
#167000
1"
1-
#168000
0"
0-
#169000
1"
1-
#170000
0"
0-
1%
15
#171000
1A
1"
1-
#172000
0"
0-
#173000
1>
1@
16
1"
1-
#174000
0"
0-
#175000
b101 T
b11 H
0@
06
1"
1-
#176000
0"
0-
#177000
1R
1*
1"
1-
#178000
0"
0-
#179000
z7
bz H
1"
1-
#180000
0"
0-
0%
05
bxz &
#181000
0A
1"
1-
#182000
0"
0-
#183000
0>
1?
14
1"
1-
#184000
0"
0-
#185000
0?
04
zK
z3
1"
1-
#186000
0"
0-
#187000
1"
1-
#188000
0"
0-
#189000
1"
1-
#190000
0"
0-
1%
15
#191000
1A
1"
1-
#192000
0"
0-
#193000
1>
1@
16
1"
1-
#194000
0"
0-
#195000
b100 T
0@
06
1"
1-
#196000
0"
0-
#197000
0R
0*
1Q
1)
1"
1-
#198000
0"
0-
#199000
1"
1-
#200000
0"
0-
0%
05
bxzz &
#201000
0A
1"
1-
#202000
0"
0-
#203000
0>
1?
14
1"
1-
#204000
0"
0-
#205000
0?
04
1"
1-
#206000
0"
0-
#207000
1"
1-
#208000
0"
0-
#209000
1"
1-
#210000
0"
0-
1%
15
#211000
1A
1"
1-
#212000
0"
0-
#213000
1>
1@
16
1"
1-
#214000
0"
0-
#215000
b1 S
bz1 H
0@
06
1"
1-
#216000
0"
0-
#217000
1"
1-
#218000
0"
0-
#219000
1"
1-
#220000
0"
0-
0%
05
bxzzz &
#221000
0A
1"
1-
#222000
0"
0-
#223000
0>
1?
14
1"
1-
#224000
0"
0-
#225000
0?
04
1"
1-
#226000
0"
0-
#227000
1"
1-
#228000
0"
0-
#229000
1"
1-
#230000
0"
0-
1%
15
#231000
1A
1"
1-
#232000
0"
0-
#233000
1>
1@
16
1"
1-
#234000
0"
0-
#235000
b10 S
bz11 H
0@
06
1"
1-
#236000
0"
0-
#237000
1"
1-
#238000
0"
0-
#239000
1"
1-
#240000
0"
0-
0%
05
bxzzzz &
#241000
0A
1"
1-
#242000
0"
0-
#243000
0>
1?
14
1"
1-
#244000
0"
0-
#245000
0?
04
1"
1-
#246000
0"
0-
#247000
1"
1-
#248000
0"
0-
#249000
1"
1-
#250000
0"
0-
1%
15
#251000
1A
1"
1-
#252000
0"
0-
#253000
1>
1@
16
1"
1-
#254000
0"
0-
#255000
b11 S
bz111 H
0@
06
1"
1-
#256000
0"
0-
#257000
1"
1-
#258000
0"
0-
#259000
1"
1-
#260000
0"
0-
0%
05
bxzzzzz &
#261000
0A
1"
1-
#262000
0"
0-
#263000
0>
1?
14
1"
1-
#264000
0"
0-
#265000
0?
04
1"
1-
#266000
0"
0-
#267000
1"
1-
#268000
0"
0-
#269000
1"
1-
#270000
0"
0-
1%
15
#271000
1A
1"
1-
#272000
0"
0-
#273000
1>
1@
16
1"
1-
#274000
0"
0-
#275000
b100 S
bz1111 H
0@
06
1"
1-
#276000
0"
0-
#277000
1"
1-
#278000
0"
0-
#279000
1"
1-
#280000
0"
0-
0%
05
bxzzzzzz &
#281000
0A
1"
1-
#282000
0"
0-
#283000
0>
1?
14
1"
1-
#284000
0"
0-
#285000
0?
04
1"
1-
#286000
0"
0-
#287000
1"
1-
#288000
0"
0-
#289000
1"
1-
#290000
0"
0-
1%
15
#291000
1A
1"
1-
#292000
0"
0-
#293000
1>
1@
16
1"
1-
#294000
0"
0-
#295000
b101 S
bz11111 H
0@
06
1"
1-
#296000
0"
0-
#297000
1"
1-
#298000
0"
0-
#299000
1"
1-
#300000
0"
0-
0%
05
bxzzzzzzz &
#301000
0A
1"
1-
#302000
0"
0-
#303000
0>
1?
14
1"
1-
#304000
0"
0-
#305000
0?
04
1"
1-
#306000
0"
0-
#307000
1"
1-
#308000
0"
0-
#309000
1"
1-
#310000
0"
0-
1%
15
#311000
1A
1"
1-
#312000
0"
0-
#313000
1>
1@
16
1"
1-
#314000
0"
0-
#315000
b110 S
bz111111 H
0@
06
1"
1-
#316000
0"
0-
#317000
1"
1-
#318000
0"
0-
#319000
1"
1-
#320000
0"
0-
0%
05
#321000
0A
1"
1-
#322000
0"
0-
#323000
0>
1?
14
1"
1-
#324000
0"
0-
#325000
0?
04
1"
1-
#326000
0"
0-
#327000
1"
1-
#328000
0"
0-
#329000
1"
1-
#330000
0"
0-
1%
15
#331000
1A
1"
1-
#332000
0"
0-
#333000
1>
1@
16
1"
1-
#334000
0"
0-
#335000
b111 S
bz1111111 H
0@
06
1"
1-
#336000
0"
0-
#337000
1"
1-
#338000
0"
0-
#339000
1"
1-
#340000
0"
0-
0%
05
#341000
0A
1"
1-
#342000
0"
0-
#343000
0>
1?
14
1"
1-
#344000
0"
0-
#345000
0?
04
1"
1-
#346000
0"
0-
#347000
1"
1-
#348000
0"
0-
#349000
1"
1-
#350000
0"
0-
1%
15
#351000
1A
1"
1-
#352000
0"
0-
#353000
1>
1@
16
1"
1-
#354000
0"
0-
#355000
17
b0 T
b0 S
b11111111 H
0@
06
1"
1-
#356000
0"
0-
#357000
0Q
0)
1"
1-
#358000
0"
0-
#359000
1"
1-
#360000
0"
0-
0%
05
#361000
0A
1"
1-
#362000
0"
0-
#363000
0>
1?
14
1"
1-
#364000
0"
0-
#365000
0?
04
1K
13
1"
1-
#366000
0"
0-
#367000
1"
1-
#368000
0"
0-
#369000
1"
1-
#370000
0"
0-
1%
15
#371000
1A
1"
1-
#372000
0"
0-
#373000
1>
1@
16
1"
1-
#374000
0"
0-
#375000
b1 T
0@
06
1"
1-
#376000
0"
0-
#377000
1O
1'
1"
1-
