spimemory.vcd
$date
	Wed Nov  1 19:22:08 2017
$end
$version
	Icarus Verilog
$end
$timescale
	1ps
$end
$scope module testSPIMemory $end
$var wire 1 ! miso_pin $end
$var reg 1 " clk $end
$var reg 1 # cs_pin $end
$var reg 1 $ mosi_pin $end
$var reg 1 % sclk_pin $end
$var reg 8 & testOut [7:0] $end
$scope module spi $end
$var wire 1 ' ADDR_WE $end
$var wire 1 ( DM_WE $end
$var wire 1 ) MISO_BUFE $end
$var wire 1 * SR_WE $end
$var wire 8 + address [7:0] $end
$var wire 1 , chip_select $end
$var wire 1 - clk $end
$var wire 1 . cs_pin $end
$var wire 8 / dataMemoryOut [7:0] $end
$var wire 4 0 leds [3:0] $end
$var wire 1 ! miso_pin $end
$var wire 1 1 mosi_pin $end
$var wire 1 2 q $end
$var wire 1 3 sclk_neg $end
$var wire 1 4 sclk_pin $end
$var wire 1 5 sclk_pos $end
$var wire 1 6 serialOut $end
$var wire 8 7 shiftRegOutP [7:0] $end
$scope module c2 $end
$var wire 1 - clk $end
$var wire 1 4 noisysignal $end
$var reg 1 8 conditioned $end
$var reg 1 9 negativeedge $end
$var reg 1 : positiveedge $end
$var reg 1 ; prev_vals $end
$upscope $end
$scope module c3 $end
$var wire 1 - clk $end
$var wire 1 . noisysignal $end
$var reg 1 < conditioned $end
$var reg 1 = negativeedge $end
$var reg 1 > positiveedge $end
$var reg 3 ? prev_vals [2:0] $end
$upscope $end
$scope module sr $end
$var wire 1 - clk $end
$var wire 8 @ parallelDataIn [7:0] $end
$var wire 8 A parallelDataOut [7:0] $end
$var wire 1 * parallelLoad $end
$var wire 1 5 peripheralClkEdge $end
$var wire 1 1 serialDataIn $end
$var wire 1 6 serialDataOut $end
$var reg 8 B data [7:0] $end
$upscope $end
$scope module dff1 $end
$var wire 8 C d [7:0] $end
$var wire 1 ' enable $end
$var wire 1 - trigger $end
$var reg 8 D q [7:0] $end
$upscope $end
$scope module dff2 $end
$var wire 1 6 d $end
$var wire 1 3 enable $end
$var wire 1 - trigger $end
$var reg 1 E q $end
$upscope $end
$scope module dataMemory $end
$var wire 7 F address [6:0] $end
$var wire 1 - clk $end
$var wire 8 G dataIn [7:0] $end
$var wire 1 ( writeEnable $end
$var reg 8 H dataOut [7:0] $end
$upscope $end
$scope module fsm $end
$var wire 1 , chip_select $end
$var wire 1 - clk $end
$var wire 1 I r_w $end
$var wire 1 5 sclk_posedge $end
$var reg 1 J ADDR_WE $end
$var reg 1 K DM_WE $end
$var reg 1 L MISO_BUFE $end
$var reg 1 M SR_WE $end
$var integer 32 N counter [31:0] $end
$var reg 8 O state [7:0] $end
$upscope $end
$upscope $end
$upscope $end
$enddefinitions $end
#0
$dumpvars
b0 O
b0 N
xM
xL
xK
xJ
xI
bx H
bx G
bx F
xE
bx D
bx C
bx B
bx A
bx @
bx ?
x>
x=
x<
x;
x:
x9
x8
bx 7
x6
x5
04
x3
x2
01
bz 0
bx /
0.
0-
x,
bx +
x*
x)
x(
x'
bx &
0%
0$
0#
0"
x!
$end
#1000
z!
0;
bx0 ?
0M
0*
0J
0'
0K
0(
0L
0)
1"
1-
#2000
0"
0-
#3000
bx00 ?
08
09
03
1"
1-
#4000
0"
0-
#5000
b0 ?
1"
1-
#6000
0"
0-
#7000
0<
0,
0=
1"
1-
#8000
0"
0-
#9000
b1 O
1"
1-
#10000
0"
0-
1%
14
#11000
1;
1"
1-
#12000
0"
0-
#13000
18
1:
15
1"
1-
#14000
0"
0-
#15000
0I
b1 N
bx0 B
bx0 7
bx0 A
bx0 C
bx0 G
0:
05
1"
1-
#16000
0"
0-
#17000
1"
1-
#18000
0"
0-
#19000
1"
1-
#20000
0"
0-
0%
04
#21000
0;
1"
1-
#22000
0"
0-
#23000
08
19
13
1"
1-
#24000
0"
0-
#25000
09
03
1"
1-
#26000
0"
0-
#27000
1"
1-
#28000
0"
0-
#29000
1"
1-
#30000
0"
0-
1%
14
#31000
1;
1"
1-
#32000
0"
0-
#33000
18
1:
15
1"
1-
#34000
0"
0-
#35000
b10 N
bx00 B
bx00 7
bx00 A
bx00 C
bx00 G
0:
05
1"
1-
#36000
0"
0-
#37000
1"
1-
#38000
0"
0-
#39000
1"
1-
#40000
0"
0-
0%
04
#41000
0;
1"
1-
#42000
0"
0-
#43000
08
19
13
1"
1-
#44000
0"
0-
#45000
09
03
1"
1-
#46000
0"
0-
#47000
1"
1-
#48000
0"
0-
#49000
1"
1-
#50000
0"
0-
1%
14
#51000
1;
1"
1-
#52000
0"
0-
#53000
18
1:
15
1"
1-
#54000
0"
0-
#55000
b11 N
bx000 B
bx000 7
bx000 A
bx000 C
bx000 G
0:
05
1"
1-
#56000
0"
0-
#57000
1"
1-
#58000
0"
0-
#59000
1"
1-
#60000
0"
0-
0%
04
#61000
0;
1"
1-
#62000
0"
0-
#63000
08
19
13
1"
1-
#64000
0"
0-
#65000
09
03
1"
1-
#66000
0"
0-
#67000
1"
1-
#68000
0"
0-
#69000
1"
1-
#70000
0"
0-
1%
14
#71000
1;
1"
1-
#72000
0"
0-
#73000
18
1:
15
1"
1-
#74000
0"
0-
#75000
b100 N
bx0000 B
bx0000 7
bx0000 A
bx0000 C
bx0000 G
0:
05
1"
1-
#76000
0"
0-
#77000
1"
1-
#78000
0"
0-
#79000
1"
1-
#80000
0"
0-
0%
04
#81000
0;
1"
1-
#82000
0"
0-
#83000
08
19
13
1"
1-
#84000
0"
0-
#85000
09
03
1"
1-
#86000
0"
0-
#87000
1"
1-
#88000
0"
0-
#89000
1"
1-
#90000
0"
0-
1%
14
#91000
1;
1"
1-
#92000
0"
0-
#93000
18
1:
15
1"
1-
#94000
0"
0-
#95000
b101 N
bx00000 B
bx00000 7
bx00000 A
bx00000 C
bx00000 G
0:
05
1"
1-
#96000
0"
0-
#97000
1"
1-
#98000
0"
0-
#99000
1"
1-
#100000
0"
0-
0%
04
#101000
0;
1"
1-
#102000
0"
0-
#103000
08
19
13
1"
1-
#104000
0"
0-
#105000
09
03
1"
1-
#106000
0"
0-
#107000
1"
1-
#108000
0"
0-
#109000
1"
1-
#110000
0"
0-
1%
14
#111000
1;
1"
1-
#112000
0"
0-
#113000
18
1:
15
1"
1-
#114000
0"
0-
#115000
b110 N
bx000000 B
bx000000 7
bx000000 A
bx000000 C
bx000000 G
0:
05
1"
1-
#116000
0"
0-
#117000
1"
1-
#118000
0"
0-
#119000
1"
1-
#120000
0"
0-
0%
04
#121000
0;
1"
1-
#122000
0"
0-
#123000
08
19
13
1"
1-
#124000
0"
0-
#125000
09
03
1"
1-
#126000
0"
0-
#127000
1"
1-
#128000
0"
0-
#129000
1"
1-
#130000
0"
0-
1%
14
#131000
1;
1"
1-
#132000
0"
0-
#133000
18
1:
15
1"
1-
#134000
0"
0-
#135000
b111 N
bx0000000 B
bx0000000 7
bx0000000 A
bx0000000 C
bx0000000 G
0:
05
1"
1-
#136000
0"
0-
#137000
1"
1-
#138000
0"
0-
#139000
1"
1-
#140000
0"
0-
0%
04
#141000
0;
1"
1-
#142000
0"
0-
#143000
08
19
13
1"
1-
#144000
0"
0-
#145000
09
03
1"
1-
#146000
0"
0-
#147000
1"
1-
#148000
0"
0-
#149000
1"
1-
#150000
0"
0-
1%
14
#151000
1;
1"
1-
#152000
0"
0-
#153000
18
1:
15
1"
1-
#154000
0"
0-
#155000
06
b10 O
b0 N
b0 B
b0 7
b0 A
b0 C
b0 G
0:
05
1"
1-
#156000
0"
0-
#157000
1J
1'
b11 O
1"
1-
#158000
0"
0-
#159000
b0 F
0J
0'
1K
1(
b0 D
b0 +
1"
1-
#160000
0"
0-
0%
04
1#
1.
#161000
0;
b1 ?
1"
1-
#162000
0"
0-
#163000
b0 H
b0 /
b0 @
b11 ?
08
19
13
1"
1-
#164000
0"
0-
#165000
09
03
b111 ?
0E
02
1"
1-
#166000
0"
0-
#167000
1<
1,
1>
1"
1-
#168000
0"
0-
#169000
0>
1"
1-
#170000
0"
0-
1%
14
#171000
1;
1"
1-
#172000
0"
0-
#173000
18
1:
15
1"
1-
#174000
0"
0-
#175000
b1 N
0:
05
1"
1-
#176000
0"
0-
#177000
1"
1-
#178000
0"
0-
#179000
1"
1-
#180000
0"
0-
0%
04
#181000
0;
1"
1-
#182000
0"
0-
#183000
08
19
13
1"
1-
#184000
0"
0-
#185000
09
03
1"
1-
#186000
0"
0-
#187000
1"
1-
#188000
0"
0-
#189000
1"
1-
#190000
0"
0-
1%
14
#191000
1;
1"
1-
#192000
0"
0-
#193000
18
1:
15
1"
1-
#194000
0"
0-
#195000
b10 N
0:
05
1"
1-
#196000
0"
0-
#197000
1"
1-
#198000
0"
0-
#199000
1"
1-
#200000
0"
0-
0%
04
#201000
0;
1"
1-
#202000
0"
0-
#203000
08
19
13
1"
1-
#204000
0"
0-
#205000
09
03
1"
1-
#206000
0"
0-
#207000
1"
1-
#208000
0"
0-
#209000
1"
1-
#210000
0"
0-
1%
14
#211000
1;
1"
1-
#212000
0"
0-
#213000
18
1:
15
1"
1-
#214000
0"
0-
#215000
b11 N
0:
05
1"
1-
#216000
0"
0-
#217000
1"
1-
#218000
0"
0-
#219000
1"
1-
#220000
0"
0-
0%
04
1$
11
#221000
0;
1"
1-
#222000
0"
0-
#223000
08
19
13
1"
1-
#224000
0"
0-
#225000
09
03
1"
1-
#226000
0"
0-
#227000
1"
1-
#228000
0"
0-
#229000
1"
1-
#230000
0"
0-
1%
14
#231000
1;
1"
1-
#232000
0"
0-
#233000
18
1:
15
1"
1-
#234000
0"
0-
#235000
1I
b100 N
b1 B
b1 7
b1 A
b1 C
b1 G
0:
05
1"
1-
#236000
0"
0-
#237000
1"
1-
#238000
0"
0-
#239000
b1 H
b1 /
b1 @
1"
1-
#240000
0"
0-
0%
04
#241000
0;
1"
1-
#242000
0"
0-
#243000
08
19
13
1"
1-
#244000
0"
0-
#245000
09
03
1"
1-
#246000
0"
0-
#247000
1"
1-
#248000
0"
0-
#249000
1"
1-
#250000
0"
0-
1%
14
#251000
1;
1"
1-
#252000
0"
0-
#253000
18
1:
15
1"
1-
#254000
0"
0-
#255000
b101 N
b11 B
b11 7
b11 A
b11 C
b11 G
0:
05
1"
1-
#256000
0"
0-
#257000
1"
1-
#258000
0"
0-
#259000
b11 H
b11 /
b11 @
1"
1-
#260000
0"
0-
0%
04
0$
01
#261000
0;
1"
1-
#262000
0"
0-
#263000
08
19
13
1"
1-
#264000
0"
0-
#265000
09
03
1"
1-
#266000
0"
0-
#267000
1"
1-
#268000
0"
0-
#269000
1"
1-
#270000
0"
0-
1%
14
#271000
1;
1"
1-
#272000
0"
0-
#273000
18
1:
15
1"
1-
#274000
0"
0-
#275000
0I
b110 N
b110 B
b110 7
b110 A
b110 C
b110 G
0:
05
1"
1-
#276000
0"
0-
#277000
1"
1-
#278000
0"
0-
#279000
b110 H
b110 /
b110 @
1"
1-
#280000
0"
0-
0%
04
#281000
0;
1"
1-
#282000
0"
0-
#283000
08
19
13
1"
1-
#284000
0"
0-
#285000
09
03
1"
1-
#286000
0"
0-
#287000
1"
1-
#288000
0"
0-
#289000
1"
1-
#290000
0"
0-
1%
14
#291000
1;
1"
1-
#292000
0"
0-
#293000
18
1:
15
1"
1-
#294000
0"
0-
#295000
b111 N
b1100 B
b1100 7
b1100 A
b1100 C
b1100 G
0:
05
1"
1-
#296000
0"
0-
#297000
1"
1-
#298000
0"
0-
#299000
b1100 H
b1100 /
b1100 @
1"
1-
#300000
0"
0-
0%
04
#301000
0;
1"
1-
#302000
0"
0-
#303000
08
19
13
1"
1-
#304000
0"
0-
#305000
09
03
1"
1-
#306000
0"
0-
#307000
1"
1-
#308000
0"
0-
#309000
1"
1-
#310000
0"
0-
1%
14
#311000
1;
1"
1-
#312000
0"
0-
#313000
18
1:
15
1"
1-
#314000
0"
0-
#315000
b1000 N
b11000 B
b11000 7
b11000 A
b11000 C
b11000 G
0:
05
1"
1-
#316000
0"
0-
#317000
1"
1-
#318000
0"
0-
#319000
b11000 H
b11000 /
b11000 @
1"
1-
#320000
0"
0-
0%
04
0#
0.
#321000
0;
b110 ?
1"
1-
#322000
0"
0-
#323000
b100 ?
08
19
13
1"
1-
#324000
0"
0-
#325000
09
03
b0 ?
1"
1-
#326000
0"
0-
#327000
0<
0,
1=
1"
1-
#328000
0"
0-
#329000
0=
1"
1-
#330000
0"
0-
1%
14
#331000
1;
1"
1-
#332000
0"
0-
#333000
18
1:
15
1"
1-
#334000
0"
0-
#335000
b111 O
b0 N
b110000 B
b110000 7
b110000 A
b110000 C
b110000 G
0:
05
1"
1-
#336000
0"
0-
#337000
b0 O
1"
1-
#338000
0"
0-
#339000
0K
0(
b1 O
b110000 H
b110000 /
b110000 @
1"
1-
#340000
0"
0-
0%
04
#341000
0;
1"
1-
#342000
0"
0-
#343000
08
19
13
1"
1-
#344000
0"
0-
#345000
09
03
1"
1-
#346000
0"
0-
#347000
1"
1-
#348000
0"
0-
#349000
1"
1-
#350000
0"
0-
1%
14
#351000
1;
1"
1-
#352000
0"
0-
#353000
18
1:
15
1"
1-
#354000
0"
0-
#355000
b1 N
b1100000 B
b1100000 7
b1100000 A
b1100000 C
b1100000 G
0:
05
1"
1-
#356000
0"
0-
#357000
1"
1-
#358000
0"
0-
#359000
1"
1-
#360000
0"
0-
0%
04
#361000
0;
1"
1-
#362000
0"
0-
#363000
08
19
13
1"
1-
#364000
0"
0-
#365000
09
03
1"
1-
#366000
0"
0-
#367000
1"
1-
#368000
0"
0-
#369000
1"
1-
#370000
0"
0-
1%
14
#371000
1;
1"
1-
#372000
0"
0-
#373000
18
1:
15
1"
1-
#374000
0"
0-
#375000
16
b10 N
b11000000 B
b11000000 7
b11000000 A
b11000000 C
b11000000 G
0:
05
1"
1-
#376000
0"
0-
#377000
1"
1-
#378000
0"
0-
#379000
1"
1-
#380000
0"
0-
0%
04
#381000
0;
1"
1-
#382000
0"
0-
#383000
08
19
13
1"
1-
#384000
0"
0-
#385000
09
03
1E
12
1"
1-
#386000
0"
0-
#387000
1"
1-
#388000
0"
0-
#389000
1"
1-
#390000
0"
0-
1%
14
#391000
1;
1"
1-
#392000
0"
0-
#393000
18
1:
15
1"
1-
#394000
0"
0-
#395000
b11 N
b10000000 B
b10000000 7
b10000000 A
b10000000 C
b10000000 G
0:
05
1"
1-
#396000
0"
0-
#397000
1"
1-
#398000
0"
0-
#399000
1"
1-
#400000
0"
0-
0%
04
#401000
0;
1"
1-
#402000
0"
0-
#403000
08
19
13
1"
1-
#404000
0"
0-
#405000
09
03
1"
1-
#406000
0"
0-
#407000
1"
1-
#408000
0"
0-
#409000
1"
1-
#410000
0"
0-
1%
14
#411000
1;
1"
1-
#412000
0"
0-
#413000
18
1:
15
1"
1-
#414000
0"
0-
#415000
06
b100 N
b0 B
b0 7
b0 A
b0 C
b0 G
0:
05
1"
1-
#416000
0"
0-
#417000
1"
1-
#418000
0"
0-
#419000
1"
1-
#420000
0"
0-
0%
04
#421000
0;
1"
1-
#422000
0"
0-
#423000
08
19
13
1"
1-
#424000
0"
0-
#425000
09
03
0E
02
1"
1-
#426000
0"
0-
#427000
1"
1-
#428000
0"
0-
#429000
1"
1-
#430000
0"
0-
1%
14
#431000
1;
1"
1-
#432000
0"
0-
#433000
18
1:
15
1"
1-
#434000
0"
0-
#435000
b101 N
0:
05
1"
1-
#436000
0"
0-
#437000
1"
1-
#438000
0"
0-
#439000
1"
1-
#440000
0"
0-
0%
04
#441000
0;
1"
1-
#442000
0"
0-
#443000
08
19
13
1"
1-
#444000
0"
0-
#445000
09
03
1"
1-
#446000
0"
0-
#447000
1"
1-
#448000
0"
0-
#449000
1"
1-
#450000
0"
0-
1%
14
#451000
1;
1"
1-
#452000
0"
0-
#453000
18
1:
15
1"
1-
#454000
0"
0-
#455000
b110 N
0:
05
1"
1-
#456000
0"
0-
#457000
1"
1-
#458000
0"
0-
#459000
1"
1-
#460000
0"
0-
0%
04
1$
11
#461000
0;
1"
1-
#462000
0"
0-
#463000
08
19
13
1"
1-
#464000
0"
0-
#465000
09
03
1"
1-
#466000
0"
0-
#467000
1"
1-
#468000
0"
0-
#469000
1"
1-
#470000
0"
0-
1%
14
#471000
1;
1"
1-
#472000
0"
0-
#473000
18
1:
15
1"
1-
#474000
0"
0-
#475000
1I
b111 N
b1 B
b1 7
b1 A
b1 C
b1 G
0:
05
1"
1-
#476000
0"
0-
#477000
1"
1-
#478000
0"
0-
#479000
1"
1-
#480000
0"
0-
0%
04
x$
x1
#481000
0;
1"
1-
#482000
0"
0-
#483000
08
19
13
1"
1-
#484000
0"
0-
#485000
09
03
1"
1-
#486000
0"
0-
#487000
1"
1-
#488000
0"
0-
#489000
1"
1-
#490000
0"
0-
1%
14
#491000
1;
1"
1-
#492000
0"
0-
#493000
18
1:
15
1"
1-
#494000
0"
0-
#495000
xI
b10 O
b0 N
b1x B
b1x 7
b1x A
b1x C
b1x G
0:
05
1"
1-
#496000
0"
0-
#497000
1J
1'
b101 O
1"
1-
#498000
0"
0-
#499000
b1 F
0J
0'
b110 O
b1x D
b1x +
1"
1-
#500000
0"
0-
0%
04
bxz &
#501000
0;
bx H
bx /
bx @
1M
1*
b100 O
1"
1-
#502000
0"
0-
#503000
0!
x6
0M
0*
1L
1)
bx B
bx 7
bx A
bx C
bx G
08
19
13
1"
1-
#504000
0"
0-
#505000
x!
09
03
xE
x2
1"
1-
#506000
0"
0-
#507000
1"
1-
#508000
0"
0-
#509000
1"
1-
#510000
0"
0-
1%
14
#511000
1;
1"
1-
#512000
0"
0-
#513000
18
1:
15
1"
1-
#514000
0"
0-
#515000
b1 N
0:
05
1"
1-
#516000
0"
0-
#517000
1"
1-
#518000
0"
0-
#519000
1"
1-
#520000
0"
0-
0%
04
bxz &
#521000
0;
1"
1-
#522000
0"
0-
#523000
08
19
13
1"
1-
#524000
0"
0-
#525000
09
03
1"
1-
#526000
0"
0-
#527000
1"
1-
#528000
0"
0-
#529000
1"
1-
#530000
0"
0-
1%
14
#531000
1;
1"
1-
#532000
0"
0-
#533000
18
1:
15
1"
1-
#534000
0"
0-
#535000
b10 N
0:
05
1"
1-
#536000
0"
0-
#537000
1"
1-
#538000
0"
0-
#539000
1"
1-
#540000
0"
0-
0%
04
bxz &
#541000
0;
1"
1-
#542000
0"
0-
#543000
08
19
13
1"
1-
#544000
0"
0-
#545000
09
03
1"
1-
#546000
0"
0-
#547000
1"
1-
#548000
0"
0-
#549000
1"
1-
#550000
0"
0-
1%
14
#551000
1;
1"
1-
#552000
0"
0-
#553000
18
1:
15
1"
1-
#554000
0"
0-
#555000
b11 N
0:
05
1"
1-
#556000
0"
0-
#557000
1"
1-
#558000
0"
0-
#559000
1"
1-
#560000
0"
0-
0%
04
bxz &
#561000
0;
1"
1-
#562000
0"
0-
#563000
08
19
13
1"
1-
#564000
0"
0-
#565000
09
03
1"
1-
#566000
0"
0-
#567000
1"
1-
#568000
0"
0-
#569000
1"
1-
#570000
0"
0-
1%
14
#571000
1;
1"
1-
#572000
0"
0-
#573000
18
1:
15
1"
1-
#574000
0"
0-
#575000
b100 N
0:
05
1"
1-
#576000
0"
0-
#577000
1"
1-
#578000
0"
0-
#579000
1"
1-
#580000
0"
0-
0%
04
bxz &
#581000
0;
1"
1-
#582000
0"
0-
#583000
08
19
13
1"
1-
#584000
0"
0-
#585000
09
03
1"
1-
#586000
0"
0-
#587000
1"
1-
#588000
0"
0-
#589000
1"
1-
#590000
0"
0-
1%
14
#591000
1;
1"
1-
#592000
0"
0-
#593000
18
1:
15
1"
1-
#594000
0"
0-
#595000
b101 N
0:
05
1"
1-
#596000
0"
0-
#597000
1"
1-
#598000
0"
0-
#599000
1"
1-
#600000
0"
0-
0%
04
bxz &
#601000
0;
1"
1-
#602000
0"
0-
#603000
08
19
13
1"
1-
#604000
0"
0-
#605000
09
03
1"
1-
#606000
0"
0-
#607000
1"
1-
#608000
0"
0-
#609000
1"
1-
#610000
0"
0-
1%
14
#611000
1;
1"
1-
#612000
0"
0-
#613000
18
1:
15
1"
1-
#614000
0"
0-
#615000
b110 N
0:
05
1"
1-
#616000
0"
0-
#617000
1"
1-
#618000
0"
0-
#619000
1"
1-
#620000
0"
0-
0%
04
bxz &
#621000
0;
1"
1-
#622000
0"
0-
#623000
08
19
13
1"
1-
#624000
0"
0-
#625000
09
03
1"
1-
#626000
0"
0-
#627000
1"
1-
#628000
0"
0-
#629000
1"
1-
#630000
0"
0-
1%
14
#631000
1;
1"
1-
#632000
0"
0-
#633000
18
1:
15
1"
1-
#634000
0"
0-
#635000
b111 N
0:
05
1"
1-
#636000
0"
0-
#637000
1"
1-
#638000
0"
0-
#639000
1"
1-
#640000
0"
0-
0%
04
#641000
0;
1"
1-
#642000
0"
0-
#643000
08
19
13
1"
1-
#644000
0"
0-
#645000
09
03
1"
1-
#646000
0"
0-
#647000
1"
1-
#648000
0"
0-
#649000
1"
1-
#650000
0"
0-
1%
14
#651000
1;
1"
1-
#652000
0"
0-
#653000
18
1:
15
1"
1-
#654000
0"
0-
#655000
b0 O
b0 N
0:
05
1"
1-
#656000
0"
0-
#657000
z!
0L
0)
b1 O
1"
1-
#658000
0"
0-
#659000
1"
1-
#660000
0"
0-
0%
04
#661000
0;
1"
1-
#662000
0"
0-
#663000
08
19
13
1"
1-
#664000
0"
0-
#665000
09
03
1"
1-
#666000
0"
0-
#667000
1"
1-
#668000
0"
0-
#669000
1"
1-
#670000
0"
0-
1%
14
#671000
1;
1"
1-
#672000
0"
0-
#673000
18
1:
15
1"
1-
#674000
0"
0-
#675000
b1 N
0:
05
1"
1-
#676000
0"
0-
#677000
1"
1-
#678000
0"
0-
#679000
1"
1-
#680000
0"
0-
0%
04
#681000
0;
1"
1-
#682000
0"
0-
#683000
08
19
13
1"
1-
#684000
0"
0-
#685000
09
03
1"
1-
#686000
0"
0-
#687000
1"
1-
#688000
0"
0-
#689000
1"
1-
#690000
0"
0-
1%
14
#691000
1;
1"
1-
#692000
0"
0-
#693000
18
1:
15
1"
1-
#694000
0"
0-
#695000
b10 N
0:
05
1"
1-
#696000
0"
0-
#697000
1"
1-
#698000
0"
0-
#699000
1"
1-
#700000
0"
0-
1#
1.
