spimemory.vcd
$date
	Wed Nov  1 15:22:16 2017
$end
$version
	Icarus Verilog
$end
$timescale
	1ps
$end
$scope module testSPIMemory $end
$var wire 1 ! miso_pin $end
$var reg 1 " clk $end
$var reg 1 # cs_pin $end
$var reg 1 $ mosi_pin $end
$var reg 1 % sclk_pin $end
$var reg 8 & testOut [7:0] $end
$scope module spi $end
$var wire 1 ' ADDR_WE $end
$var wire 1 ( DM_WE $end
$var wire 1 ) MISO_BUFE $end
$var wire 1 * SR_WE $end
$var wire 8 + address [7:0] $end
$var wire 1 , chip_select $end
$var wire 1 - clk $end
$var wire 1 . conditioned $end
$var wire 1 / cs_pin $end
$var wire 8 0 dataMemoryOut [7:0] $end
$var wire 4 1 leds [3:0] $end
$var wire 1 ! miso_pin $end
$var wire 1 2 mosi $end
$var wire 1 3 mosi_pin $end
$var wire 1 4 q $end
$var wire 1 5 sclk_neg $end
$var wire 1 6 sclk_pin $end
$var wire 1 7 sclk_pos $end
$var wire 1 8 serialOut $end
$var wire 1 9 shiftRegOut $end
$var wire 8 : shiftRegOutP [7:0] $end
$scope module c1 $end
$var wire 1 - clk $end
$var wire 1 3 noisysignal $end
$var reg 1 ; conditioned $end
$var reg 1 < negativeedge $end
$var reg 1 = positiveedge $end
$var reg 3 > prev_vals [2:0] $end
$upscope $end
$scope module c2 $end
$var wire 1 - clk $end
$var wire 1 6 noisysignal $end
$var reg 1 ? conditioned $end
$var reg 1 @ negativeedge $end
$var reg 1 A positiveedge $end
$var reg 3 B prev_vals [2:0] $end
$upscope $end
$scope module c3 $end
$var wire 1 - clk $end
$var wire 1 / noisysignal $end
$var reg 1 C conditioned $end
$var reg 1 D negativeedge $end
$var reg 1 E positiveedge $end
$var reg 3 F prev_vals [2:0] $end
$upscope $end
$scope module sr $end
$var wire 1 - clk $end
$var wire 8 G parallelDataIn [7:0] $end
$var wire 8 H parallelDataOut [7:0] $end
$var wire 1 * parallelLoad $end
$var wire 1 7 peripheralClkEdge $end
$var wire 1 2 serialDataIn $end
$var wire 1 8 serialDataOut $end
$var reg 8 I data [7:0] $end
$upscope $end
$scope module dff1 $end
$var wire 8 J d [7:0] $end
$var wire 1 ' enable $end
$var wire 1 - trigger $end
$var reg 8 K q [7:0] $end
$upscope $end
$scope module dff2 $end
$var wire 1 8 d $end
$var wire 1 5 enable $end
$var wire 1 - trigger $end
$var reg 1 L q $end
$upscope $end
$scope module dataMemory $end
$var wire 7 M address [6:0] $end
$var wire 1 - clk $end
$var wire 8 N dataIn [7:0] $end
$var wire 1 ( writeEnable $end
$var reg 8 O dataOut [7:0] $end
$upscope $end
$scope module fsm $end
$var wire 1 , chip_select $end
$var wire 1 9 r_w $end
$var wire 1 6 sclk $end
$var reg 1 P ADDR_WE $end
$var reg 1 Q DM_WE $end
$var reg 1 R MISO_BUFE $end
$var reg 1 S SR_WE $end
$var integer 32 T counter [31:0] $end
$var reg 8 U state [7:0] $end
$upscope $end
$upscope $end
$upscope $end
$enddefinitions $end
#0
$dumpvars
b0 U
b0 T
xS
xR
xQ
xP
bx O
bz N
bx M
xL
bx K
bx J
bx I
bx H
bz G
bx F
xE
xD
xC
bx B
xA
x@
x?
bx >
x=
x<
x;
bx :
z9
x8
x7
06
x5
x4
03
z2
bz 1
bz 0
0/
x.
0-
x,
bx +
x*
x)
x(
x'
bx &
0%
0$
0#
0"
x!
$end
#1000
bx0 >
bx0 B
bx0 F
1"
1-
#2000
0"
0-
#3000
bx00 F
bx00 B
bx00 >
1"
1-
#4000
0"
0-
#5000
b0 >
b0 B
b0 F
1"
1-
#6000
0"
0-
#7000
0C
0,
0D
0?
0@
05
0;
0.
0<
1"
1-
#8000
0"
0-
#9000
1"
1-
#10000
z!
0S
0*
0P
0'
0Q
0(
0R
0)
b1 U
0"
0-
1%
16
#11000
b1 B
1"
1-
#12000
0"
0-
#13000
b11 B
1"
1-
#14000
0"
0-
#15000
b111 B
1"
1-
#16000
0"
0-
#17000
1?
1A
17
1"
1-
#18000
0"
0-
#19000
bxz I
0A
07
1"
1-
#20000
0"
0-
0%
06
#21000
b110 B
1"
1-
#22000
0"
0-
#23000
b100 B
1"
1-
#24000
0"
0-
#25000
b0 B
1"
1-
#26000
0"
0-
#27000
0?
1@
15
1"
1-
#28000
0"
0-
#29000
0@
05
1"
1-
#30000
1P
1'
b1 T
0"
0-
1%
16
#31000
b1 B
1"
1-
#32000
0"
0-
#33000
b11 B
1"
1-
#34000
0"
0-
#35000
b111 B
1"
1-
#36000
0"
0-
#37000
1?
1A
17
1"
1-
#38000
0"
0-
#39000
bxzz I
0A
07
1"
1-
#40000
0"
0-
0%
06
#41000
b110 B
1"
1-
#42000
0"
0-
#43000
b100 B
1"
1-
#44000
0"
0-
#45000
b0 B
1"
1-
#46000
0"
0-
#47000
0?
1@
15
1"
1-
#48000
0"
0-
#49000
0@
05
1"
1-
#50000
b10 T
0"
0-
1%
16
#51000
b1 B
1"
1-
#52000
0"
0-
#53000
b11 B
1"
1-
#54000
0"
0-
#55000
b111 B
1"
1-
#56000
0"
0-
#57000
1?
1A
17
1"
1-
#58000
0"
0-
#59000
bxzzz I
0A
07
1"
1-
#60000
0"
0-
0%
06
#61000
b110 B
1"
1-
#62000
0"
0-
#63000
b100 B
1"
1-
#64000
0"
0-
#65000
b0 B
1"
1-
#66000
0"
0-
#67000
0?
1@
15
1"
1-
#68000
0"
0-
#69000
0@
05
1"
1-
#70000
b11 T
0"
0-
1%
16
#71000
b1 B
1"
1-
#72000
0"
0-
#73000
b11 B
1"
1-
#74000
0"
0-
#75000
b111 B
1"
1-
#76000
0"
0-
#77000
1?
1A
17
1"
1-
#78000
0"
0-
#79000
bxzzzz I
0A
07
1"
1-
#80000
0"
0-
0%
06
#81000
b110 B
1"
1-
#82000
0"
0-
#83000
b100 B
1"
1-
#84000
0"
0-
#85000
b0 B
1"
1-
#86000
0"
0-
#87000
0?
1@
15
1"
1-
#88000
0"
0-
#89000
0@
05
1"
1-
#90000
b100 T
0"
0-
1%
16
#91000
b1 B
1"
1-
#92000
0"
0-
#93000
b11 B
1"
1-
#94000
0"
0-
#95000
b111 B
1"
1-
#96000
0"
0-
#97000
1?
1A
17
1"
1-
#98000
0"
0-
#99000
bxzzzzz I
0A
07
1"
1-
#100000
0"
0-
0%
06
#101000
b110 B
1"
1-
#102000
0"
0-
#103000
b100 B
1"
1-
#104000
0"
0-
#105000
b0 B
1"
1-
#106000
0"
0-
#107000
0?
1@
15
1"
1-
#108000
0"
0-
#109000
0@
05
1"
1-
#110000
b101 T
0"
0-
1%
16
#111000
b1 B
1"
1-
#112000
0"
0-
#113000
b11 B
1"
1-
#114000
0"
0-
#115000
b111 B
1"
1-
#116000
0"
0-
#117000
1?
1A
17
1"
1-
#118000
0"
0-
#119000
bxzzzzzz I
0A
07
1"
1-
#120000
0"
0-
0%
06
#121000
b110 B
1"
1-
#122000
0"
0-
#123000
b100 B
1"
1-
#124000
0"
0-
#125000
b0 B
1"
1-
#126000
0"
0-
#127000
0?
1@
15
1"
1-
#128000
0"
0-
#129000
0@
05
1"
1-
#130000
b110 T
0"
0-
1%
16
#131000
b1 B
1"
1-
#132000
0"
0-
#133000
b11 B
1"
1-
#134000
0"
0-
#135000
b111 B
1"
1-
#136000
0"
0-
#137000
1?
1A
17
1"
1-
#138000
0"
0-
#139000
bxzzzzzzz I
0A
07
1"
1-
#140000
0"
0-
0%
06
1$
13
#141000
b1 >
b110 B
1"
1-
#142000
0"
0-
#143000
b100 B
b11 >
1"
1-
#144000
0"
0-
#145000
b111 >
b0 B
1"
1-
#146000
0"
0-
#147000
0?
1@
15
1;
1.
1=
1"
1-
#148000
0"
0-
#149000
0=
0@
05
1"
1-
#150000
b111 T
0"
0-
1%
16
#151000
b1 B
1"
1-
#152000
0"
0-
#153000
b11 B
1"
1-
#154000
0"
0-
#155000
b111 B
1"
1-
#156000
0"
0-
#157000
1?
1A
17
1"
1-
#158000
0"
0-
#159000
z8
bz I
0A
07
1"
1-
#160000
0"
0-
0%
06
x$
x3
#161000
b11x >
b110 B
1"
1-
#162000
0"
0-
#163000
b100 B
b1xx >
1"
1-
#164000
0"
0-
#165000
bx >
b0 B
1"
1-
#166000
0"
0-
#167000
0?
1@
15
1"
1-
#168000
0"
0-
#169000
0@
05
zL
z4
1"
1-
#170000
b1000 T
0"
0-
1%
16
#171000
b1 B
1"
1-
#172000
0"
0-
#173000
b11 B
1"
1-
#174000
0"
0-
#175000
b111 B
1"
1-
#176000
0"
0-
#177000
1?
1A
17
1"
1-
#178000
0"
0-
#179000
0A
07
1"
1-
#180000
0"
0-
0%
06
bxz &
#181000
b110 B
1"
1-
#182000
0"
0-
#183000
b100 B
1"
1-
#184000
0"
0-
#185000
b0 B
1"
1-
#186000
0"
0-
#187000
0?
1@
15
1"
1-
#188000
0"
0-
#189000
0@
05
1"
1-
#190000
b10 U
b0 T
0"
0-
1%
16
#191000
b1 B
1"
1-
#192000
0"
0-
#193000
b11 B
1"
1-
#194000
0"
0-
#195000
b111 B
1"
1-
#196000
0"
0-
#197000
1?
1A
17
1"
1-
#198000
0"
0-
#199000
0A
07
1"
1-
#200000
0"
0-
0%
06
bxzz &
#201000
b110 B
1"
1-
#202000
0"
0-
#203000
b100 B
1"
1-
#204000
0"
0-
#205000
b0 B
1"
1-
#206000
0"
0-
#207000
0?
1@
15
1"
1-
#208000
0"
0-
#209000
0@
05
1"
1-
#210000
0P
0'
b100 U
0"
0-
1%
16
#211000
b1 B
1"
1-
#212000
0"
0-
#213000
b11 B
1"
1-
#214000
0"
0-
#215000
b111 B
1"
1-
#216000
0"
0-
#217000
1?
1A
17
1"
1-
#218000
0"
0-
#219000
0A
07
1"
1-
#220000
0"
0-
0%
06
bxzzz &
#221000
b110 B
1"
1-
#222000
0"
0-
#223000
b100 B
1"
1-
#224000
0"
0-
#225000
b0 B
1"
1-
#226000
0"
0-
#227000
0?
1@
15
1"
1-
#228000
0"
0-
#229000
0@
05
1"
1-
#230000
1S
1*
1R
1)
0"
0-
1%
16
#231000
b1 B
1"
1-
#232000
0"
0-
#233000
b11 B
1"
1-
#234000
0"
0-
#235000
b111 B
1"
1-
#236000
0"
0-
#237000
1?
1A
17
1"
1-
#238000
0"
0-
#239000
0A
07
1"
1-
#240000
0"
0-
0%
06
bxzzzz &
#241000
b110 B
1"
1-
#242000
0"
0-
#243000
b100 B
1"
1-
#244000
0"
0-
#245000
b0 B
1"
1-
#246000
0"
0-
#247000
0?
1@
15
1"
1-
#248000
0"
0-
#249000
0@
05
1"
1-
#250000
0"
0-
1%
16
#251000
b1 B
1"
1-
#252000
0"
0-
#253000
b11 B
1"
1-
#254000
0"
0-
#255000
b111 B
1"
1-
#256000
0"
0-
#257000
1?
1A
17
1"
1-
#258000
0"
0-
#259000
0A
07
1"
1-
#260000
0"
0-
0%
06
bxzzzzz &
#261000
b110 B
1"
1-
#262000
0"
0-
#263000
b100 B
1"
1-
#264000
0"
0-
#265000
b0 B
1"
1-
#266000
0"
0-
#267000
0?
1@
15
1"
1-
#268000
0"
0-
#269000
0@
05
1"
1-
#270000
0"
0-
1%
16
#271000
b1 B
1"
1-
#272000
0"
0-
#273000
b11 B
1"
1-
#274000
0"
0-
#275000
b111 B
1"
1-
#276000
0"
0-
#277000
1?
1A
17
1"
1-
#278000
0"
0-
#279000
0A
07
1"
1-
#280000
0"
0-
0%
06
bxzzzzzz &
#281000
b110 B
1"
1-
#282000
0"
0-
#283000
b100 B
1"
1-
#284000
0"
0-
#285000
b0 B
1"
1-
#286000
0"
0-
#287000
0?
1@
15
1"
1-
#288000
0"
0-
#289000
0@
05
1"
1-
#290000
0"
0-
1%
16
#291000
b1 B
1"
1-
#292000
0"
0-
#293000
b11 B
1"
1-
#294000
0"
0-
#295000
b111 B
1"
1-
#296000
0"
0-
#297000
1?
1A
17
1"
1-
#298000
0"
0-
#299000
0A
07
1"
1-
#300000
0"
0-
0%
06
bxzzzzzzz &
#301000
b110 B
1"
1-
#302000
0"
0-
#303000
b100 B
1"
1-
#304000
0"
0-
#305000
b0 B
1"
1-
#306000
0"
0-
#307000
0?
1@
15
1"
1-
#308000
0"
0-
#309000
0@
05
1"
1-
#310000
0"
0-
1%
16
#311000
b1 B
1"
1-
#312000
0"
0-
#313000
b11 B
1"
1-
#314000
0"
0-
#315000
b111 B
1"
1-
#316000
0"
0-
#317000
1?
1A
17
1"
1-
#318000
0"
0-
#319000
0A
07
1"
1-
